%YAML 1.1
%TAG !u! tag:unity3d.com,2011:
--- !u!74 &7400000
AnimationClip:
  m_ObjectHideFlags: 0
  m_CorrespondingSourceObject: {fileID: 0}
  m_PrefabInstance: {fileID: 0}
  m_PrefabAsset: {fileID: 0}
  m_Name: great sword crouching (4)
  serializedVersion: 6
  m_Legacy: 0
  m_Compressed: 0
  m_UseHighQualityCurve: 1
  m_RotationCurves:
  - curve:
      serializedVersion: 2
      m_Curve:
      - serializedVersion: 3
        time: 0
        value: {x: 0.11749056, y: 0.4442443, z: -0.040387277, w: 0.88724965}
        inSlope: {x: -0.41161424, y: 0.52693784, z: -0.05914673, w: -0.22140919}
        outSlope: {x: -0.41161424, y: 0.52693784, z: -0.05914673, w: -0.22140919}
        tangentMode: 0
        weightedMode: 0
        inWeight: {x: 0.33333334, y: 0.33333334, z: 0.33333334, w: 0.33333334}
        outWeight: {x: 0.33333334, y: 0.33333334, z: 0.33333334, w: 0.33333334}
      - serializedVersion: 3
        time: 0.13333334
        value: {x: 0.0743684, y: 0.5298548, z: -0.038442973, w: 0.84394634}
        inSlope: {x: -0.21740066, y: 0.66097057, z: 0.033863395, w: -0.393734}
        outSlope: {x: -0.21740066, y: 0.66097057, z: 0.033863395, w: -0.393734}
        tangentMode: 0
        weightedMode: 0
        inWeight: {x: 0.33333334, y: 0.33333334, z: 0.33333334, w: 0.33333334}
        outWeight: {x: 0.33333334, y: 0.33333334, z: 0.33333334, w: 0.33333334}
      - serializedVersion: 3
        time: 0.26666668
        value: {x: 0.040441595, y: 0.5838259, z: -0.02604369, w: 0.8104527}
        inSlope: {x: -0.19920394, y: 0.2262363, z: 0.086253, w: -0.15004726}
        outSlope: {x: -0.19920394, y: 0.2262363, z: 0.086253, w: -0.15004726}
        tangentMode: 0
        weightedMode: 0
        inWeight: {x: 0.33333334, y: 0.33333334, z: 0.33333334, w: 0.33333334}
        outWeight: {x: 0.33333334, y: 0.33333334, z: 0.33333334, w: 0.33333334}
      - serializedVersion: 3
        time: 0.36666667
        value: {x: 0.026892103, y: 0.60028756, z: -0.02322309, w: 0.79899466}
        inSlope: {x: -0.045505747, y: 0.076873906, z: -0.06796674, w: -0.05786598}
        outSlope: {x: -0.045505747, y: 0.076873906, z: -0.06796674, w: -0.05786598}
        tangentMode: 0
        weightedMode: 0
        inWeight: {x: 0.33333334, y: 0.33333334, z: 0.33333334, w: 0.33333334}
        outWeight: {x: 0.33333334, y: 0.33333334, z: 0.33333334, w: 0.33333334}
      m_PreInfinity: 2
      m_PostInfinity: 2
      m_RotationOrder: 4
    path: Hips
  - curve:
      serializedVersion: 2
      m_Curve:
      - serializedVersion: 3
        time: 0
        value: {x: 0.12873028, y: 0.029049965, z: 0.06565372, w: 0.98907745}
        inSlope: {x: 0.056524422, y: 0.048811227, z: 0.3403428, w: -0.03344536}
        outSlope: {x: 0.056524422, y: 0.048811227, z: 0.3403428, w: -0.03344536}
        tangentMode: 0
        weightedMode: 0
        inWeight: {x: 0.33333334, y: 0.33333334, z: 0.33333334, w: 0.33333334}
        outWeight: {x: 0.33333334, y: 0.33333334, z: 0.33333334, w: 0.33333334}
      - serializedVersion: 3
        time: 0.23333335
        value: {x: 0.1270374, y: 0.06950574, z: 0.10377498, w: 0.98400265}
        inSlope: {x: 0.08045186, y: 0.1313765, z: -0.009492227, w: -0.018656554}
        outSlope: {x: 0.08045186, y: 0.1313765, z: -0.009492227, w: -0.018656554}
        tangentMode: 0
        weightedMode: 0
        inWeight: {x: 0.33333334, y: 0.33333334, z: 0.33333334, w: 0.33333334}
        outWeight: {x: 0.33333334, y: 0.33333334, z: 0.33333334, w: 0.33333334}
      - serializedVersion: 3
        time: 0.36666667
        value: {x: 0.14121409, y: 0.08418417, z: 0.10288943, w: 0.9810124}
        inSlope: {x: 0.15504377, y: 0.07536762, z: 0.010950343, w: -0.029413106}
        outSlope: {x: 0.15504377, y: 0.07536762, z: 0.010950343, w: -0.029413106}
        tangentMode: 0
        weightedMode: 0
        inWeight: {x: 0.33333334, y: 0.33333334, z: 0.33333334, w: 0.33333334}
        outWeight: {x: 0.33333334, y: 0.33333334, z: 0.33333334, w: 0.33333334}
      m_PreInfinity: 2
      m_PostInfinity: 2
      m_RotationOrder: 4
    path: Hips/Spine
  - curve:
      serializedVersion: 2
      m_Curve:
      - serializedVersion: 3
        time: 0
        value: {x: -0.025526198, y: 0.025736623, z: 0.035597138, w: 0.9987086}
        inSlope: {x: 0.12861125, y: -0.094311215, z: 0.14520864, w: -0.00023424624}
        outSlope: {x: 0.12861125, y: -0.094311215, z: 0.14520864, w: -0.00023424624}
        tangentMode: 0
        weightedMode: 0
        inWeight: {x: 0.33333334, y: 0.33333334, z: 0.33333334, w: 0.33333334}
        outWeight: {x: 0.33333334, y: 0.33333334, z: 0.33333334, w: 0.33333334}
      - serializedVersion: 3
        time: 0.26666668
        value: {x: -0.0037168523, y: 0.042239934, z: 0.043481305, w: 0.998154}
        inSlope: {x: 0.09414206, y: 0.087610565, z: -0.076598085, w: -0.000017881393}
        outSlope: {x: 0.09414206, y: 0.087610565, z: -0.076598085, w: -0.000017881393}
        tangentMode: 0
        weightedMode: 0
        inWeight: {x: 0.33333334, y: 0.33333334, z: 0.33333334, w: 0.33333334}
        outWeight: {x: 0.33333334, y: 0.33333334, z: 0.33333334, w: 0.33333334}
      - serializedVersion: 3
        time: 0.36666667
        value: {x: 0.0069180457, y: 0.049209464, z: 0.03666262, w: 0.9980914}
        inSlope: {x: 0.12437129, y: 0.0432732, z: -0.053676035, w: -0.00068664557}
        outSlope: {x: 0.12437129, y: 0.0432732, z: -0.053676035, w: -0.00068664557}
        tangentMode: 0
        weightedMode: 0
        inWeight: {x: 0.33333334, y: 0.33333334, z: 0.33333334, w: 0.33333334}
        outWeight: {x: 0.33333334, y: 0.33333334, z: 0.33333334, w: 0.33333334}
      m_PreInfinity: 2
      m_PostInfinity: 2
      m_RotationOrder: 4
    path: Hips/Spine/Spine1
  - curve:
      serializedVersion: 2
      m_Curve:
      - serializedVersion: 3
        time: 0
        value: {x: -0.026640655, y: 0.027071893, z: 0.033165034, w: 0.9987279}
        inSlope: {x: 0.13157743, y: -0.09171578, z: 0.14974615, w: 0.00021994112}
        outSlope: {x: 0.13157743, y: -0.09171578, z: 0.14974615, w: 0.00021994112}
        tangentMode: 0
        weightedMode: 0
        inWeight: {x: 0.33333334, y: 0.33333334, z: 0.33333334, w: 0.33333334}
        outWeight: {x: 0.33333334, y: 0.33333334, z: 0.33333334, w: 0.33333334}
      - serializedVersion: 3
        time: 0.26666668
        value: {x: -0.0032611368, y: 0.043086905, z: 0.042059474, w: 0.99818027}
        inSlope: {x: 0.098317355, y: 0.08154403, z: -0.07188153, w: -0.00016719104}
        outSlope: {x: 0.098317355, y: 0.08154403, z: -0.07188153, w: -0.00016719104}
        tangentMode: 0
        weightedMode: 0
        inWeight: {x: 0.33333334, y: 0.33333334, z: 0.33333334, w: 0.33333334}
        outWeight: {x: 0.33333334, y: 0.33333334, z: 0.33333334, w: 0.33333334}
      - serializedVersion: 3
        time: 0.36666667
        value: {x: 0.007619776, y: 0.049482748, z: 0.035777956, w: 0.9981049}
        inSlope: {x: 0.12434393, y: 0.038043227, z: -0.04731607, w: -0.0008189679}
        outSlope: {x: 0.12434393, y: 0.038043227, z: -0.04731607, w: -0.0008189679}
        tangentMode: 0
        weightedMode: 0
        inWeight: {x: 0.33333334, y: 0.33333334, z: 0.33333334, w: 0.33333334}
        outWeight: {x: 0.33333334, y: 0.33333334, z: 0.33333334, w: 0.33333334}
      m_PreInfinity: 2
      m_PostInfinity: 2
      m_RotationOrder: 4
    path: Hips/Spine/Spine1/Spine2
  - curve:
      serializedVersion: 2
      m_Curve:
      - serializedVersion: 3
        time: 0
        value: {x: 0.15202041, y: -0.084823914, z: -0.21477596, w: 0.9610234}
        inSlope: {x: 0.15839382, y: -0.20954823, z: 0.33993062, w: 0.02920389}
        outSlope: {x: 0.15839382, y: -0.20954823, z: 0.33993062, w: 0.02920389}
        tangentMode: 0
        weightedMode: 0
        inWeight: {x: 0.33333334, y: 0.33333334, z: 0.33333334, w: 0.33333334}
        outWeight: {x: 0.33333334, y: 0.33333334, z: 0.33333334, w: 0.33333334}
      - serializedVersion: 3
        time: 0.13333334
        value: {x: 0.15416759, y: -0.105691165, z: -0.17165905, w: 0.96726155}
        inSlope: {x: -0.3379407, y: -0.19267079, z: 0.42033058, w: 0.10687173}
        outSlope: {x: -0.3379407, y: -0.19267079, z: 0.42033058, w: 0.10687173}
        tangentMode: 0
        weightedMode: 0
        inWeight: {x: 0.33333334, y: 0.33333334, z: 0.33333334, w: 0.33333334}
        outWeight: {x: 0.33333334, y: 0.33333334, z: 0.33333334, w: 0.33333334}
      - serializedVersion: 3
        time: 0.36666667
        value: {x: 0.032668076, y: -0.124387674, z: -0.0929259, w: 0.9873324}
        inSlope: {x: -0.6595094, y: -0.003616065, z: 0.31986842, w: 0.060601834}
        outSlope: {x: -0.6595094, y: -0.003616065, z: 0.31986842, w: 0.060601834}
        tangentMode: 0
        weightedMode: 0
        inWeight: {x: 0.33333334, y: 0.33333334, z: 0.33333334, w: 0.33333334}
        outWeight: {x: 0.33333334, y: 0.33333334, z: 0.33333334, w: 0.33333334}
      m_PreInfinity: 2
      m_PostInfinity: 2
      m_RotationOrder: 4
    path: Hips/Spine/Spine1/Spine2/Neck
  - curve:
      serializedVersion: 2
      m_Curve:
      - serializedVersion: 3
        time: 0
        value: {x: -0.16187716, y: -0.41449672, z: 0.25529948, w: 0.8583766}
        inSlope: {x: -0.29707563, y: -0.2687806, z: -0.88084364, w: 0.057923194}
        outSlope: {x: -0.29707563, y: -0.2687806, z: -0.88084364, w: 0.057923194}
        tangentMode: 0
        weightedMode: 0
        inWeight: {x: 0.33333334, y: 0.33333334, z: 0.33333334, w: 0.33333334}
        outWeight: {x: 0.33333334, y: 0.33333334, z: 0.33333334, w: 0.33333334}
      - serializedVersion: 3
        time: 0.10000001
        value: {x: -0.18007633, y: -0.42799446, z: 0.20172627, w: 0.86238027}
        inSlope: {x: 0.10736749, y: -0.09734541, z: -0.16442096, w: 0.012181697}
        outSlope: {x: 0.10736749, y: -0.09734541, z: -0.16442096, w: 0.012181697}
        tangentMode: 0
        weightedMode: 0
        inWeight: {x: 0.33333334, y: 0.33333334, z: 0.33333334, w: 0.33333334}
        outWeight: {x: 0.33333334, y: 0.33333334, z: 0.33333334, w: 0.33333334}
      - serializedVersion: 3
        time: 0.20000002
        value: {x: -0.1557452, y: -0.44141996, z: 0.18549436, w: 0.8639929}
        inSlope: {x: 0.20722675, y: -0.014432499, z: -0.22221315, w: 0.07814615}
        outSlope: {x: 0.20722675, y: -0.014432499, z: -0.22221315, w: 0.07814615}
        tangentMode: 0
        weightedMode: 0
        inWeight: {x: 0.33333334, y: 0.33333334, z: 0.33333334, w: 0.33333334}
        outWeight: {x: 0.33333334, y: 0.33333334, z: 0.33333334, w: 0.33333334}
      - serializedVersion: 3
        time: 0.36666667
        value: {x: -0.13004248, y: -0.42945486, z: 0.15620685, w: 0.8799187}
        inSlope: {x: 0.107317425, y: 0.07334233, z: -0.12285233, w: 0.0741756}
        outSlope: {x: 0.107317425, y: 0.07334233, z: -0.12285233, w: 0.0741756}
        tangentMode: 0
        weightedMode: 0
        inWeight: {x: 0.33333334, y: 0.33333334, z: 0.33333334, w: 0.33333334}
        outWeight: {x: 0.33333334, y: 0.33333334, z: 0.33333334, w: 0.33333334}
      m_PreInfinity: 2
      m_PostInfinity: 2
      m_RotationOrder: 4
    path: Hips/Spine/Spine1/Spine2/Neck/Head
  - curve:
      serializedVersion: 2
      m_Curve:
      - serializedVersion: 3
        time: 0
        value: {x: 0.04016364, y: -0.23782021, z: 0.0772969, w: 0.9673953}
        inSlope: {x: -0.13991843, y: -1.1926397, z: 0.30828726, w: -0.34049568}
        outSlope: {x: -0.13991843, y: -1.1926397, z: 0.30828726, w: -0.34049568}
        tangentMode: 0
        weightedMode: 0
        inWeight: {x: 0.33333334, y: 0.33333334, z: 0.33333334, w: 0.33333334}
        outWeight: {x: 0.33333334, y: 0.33333334, z: 0.33333334, w: 0.33333334}
      - serializedVersion: 3
        time: 0.10000001
        value: {x: 0.02847734, y: -0.3237472, z: 0.13839078, w: 0.93553454}
        inSlope: {x: 0.02246027, y: -0.28291178, z: 1.1392609, w: -0.27305245}
        outSlope: {x: 0.02246027, y: -0.28291178, z: 1.1392609, w: -0.27305245}
        tangentMode: 0
        weightedMode: 0
        inWeight: {x: 0.33333334, y: 0.33333334, z: 0.33333334, w: 0.33333334}
        outWeight: {x: 0.33333334, y: 0.33333334, z: 0.33333334, w: 0.33333334}
      - serializedVersion: 3
        time: 0.20000002
        value: {x: 0.048601445, y: -0.3321235, z: 0.2760393, w: 0.9006299}
        inSlope: {x: 0.14517121, y: -0.10014518, z: 1.2149844, w: -0.4072138}
        outSlope: {x: 0.14517121, y: -0.10014518, z: 1.2149844, w: -0.4072138}
        tangentMode: 0
        weightedMode: 0
        inWeight: {x: 0.33333334, y: 0.33333334, z: 0.33333334, w: 0.33333334}
        outWeight: {x: 0.33333334, y: 0.33333334, z: 0.33333334, w: 0.33333334}
      - serializedVersion: 3
        time: 0.3
        value: {x: 0.046676945, y: -0.34811366, z: 0.37138999, w: 0.85948104}
        inSlope: {x: -0.03804088, y: -0.25664005, z: 0.8868649, w: -0.485901}
        outSlope: {x: -0.03804088, y: -0.25664005, z: 0.8868649, w: -0.485901}
        tangentMode: 0
        weightedMode: 0
        inWeight: {x: 0.33333334, y: 0.33333334, z: 0.33333334, w: 0.33333334}
        outWeight: {x: 0.33333334, y: 0.33333334, z: 0.33333334, w: 0.33333334}
      - serializedVersion: 3
        time: 0.33333334
        value: {x: 0.045381226, y: -0.35844815, z: 0.40052813, w: 0.84204084}
        inSlope: {x: -0.10281227, y: -0.64554024, z: 0.80622244, w: -0.6630877}
        outSlope: {x: -0.10281227, y: -0.64554024, z: 0.80622244, w: -0.6630877}
        tangentMode: 0
        weightedMode: 0
        inWeight: {x: 0.33333334, y: 0.33333334, z: 0.33333334, w: 0.33333334}
        outWeight: {x: 0.33333334, y: 0.33333334, z: 0.33333334, w: 0.33333334}
      - serializedVersion: 3
        time: 0.36666667
        value: {x: 0.039822794, y: -0.39114967, z: 0.42513815, w: 0.8152752}
        inSlope: {x: -0.16675295, y: -0.9810457, z: 0.73830044, w: -0.8029694}
        outSlope: {x: -0.16675295, y: -0.9810457, z: 0.73830044, w: -0.8029694}
        tangentMode: 0
        weightedMode: 0
        inWeight: {x: 0.33333334, y: 0.33333334, z: 0.33333334, w: 0.33333334}
        outWeight: {x: 0.33333334, y: 0.33333334, z: 0.33333334, w: 0.33333334}
      m_PreInfinity: 2
      m_PostInfinity: 2
      m_RotationOrder: 4
    path: Hips/Spine/Spine1/Spine2/RightShoulder
  - curve:
      serializedVersion: 2
      m_Curve:
      - serializedVersion: 3
        time: 0
        value: {x: -0.40958875, y: -0.33343247, z: -0.37405998, w: 0.76232475}
        inSlope: {x: 0.2455893, y: 0.19303678, z: 1.7299416, w: 0.976814}
        outSlope: {x: 0.2455893, y: 0.19303678, z: 1.7299416, w: 0.976814}
        tangentMode: 0
        weightedMode: 0
        inWeight: {x: 0.33333334, y: 0.33333334, z: 0.33333334, w: 0.33333334}
        outWeight: {x: 0.33333334, y: 0.33333334, z: 0.33333334, w: 0.33333334}
      - serializedVersion: 3
        time: 0.06666667
        value: {x: -0.4082041, y: -0.32496345, z: -0.26015905, w: 0.8124564}
        inSlope: {x: -0.4332594, y: -0.12315762, z: 1.6469289, w: 0.2609834}
        outSlope: {x: -0.4332594, y: -0.12315762, z: 1.6469289, w: 0.2609834}
        tangentMode: 0
        weightedMode: 0
        inWeight: {x: 0.33333334, y: 0.33333334, z: 0.33333334, w: 0.33333334}
        outWeight: {x: 0.33333334, y: 0.33333334, z: 0.33333334, w: 0.33333334}
      - serializedVersion: 3
        time: 0.13333334
        value: {x: -0.4658937, y: -0.33725134, z: -0.14929107, w: 0.8043114}
        inSlope: {x: -1.1018579, y: -0.05459771, z: 1.7292483, w: -0.34389678}
        outSlope: {x: -1.1018579, y: -0.05459771, z: 1.7292483, w: -0.34389678}
        tangentMode: 0
        weightedMode: 0
        inWeight: {x: 0.33333334, y: 0.33333334, z: 0.33333334, w: 0.33333334}
        outWeight: {x: 0.33333334, y: 0.33333334, z: 0.33333334, w: 0.33333334}
      - serializedVersion: 3
        time: 0.16666667
        value: {x: -0.5037436, y: -0.33884826, z: -0.091316774, w: 0.78935766}
        inSlope: {x: -1.0464262, y: 0.35482034, z: 1.6731663, w: -0.31759676}
        outSlope: {x: -1.0464262, y: 0.35482034, z: 1.6731663, w: -0.31759676}
        tangentMode: 0
        weightedMode: 0
        inWeight: {x: 0.33333334, y: 0.33333334, z: 0.33333334, w: 0.33333334}
        outWeight: {x: 0.33333334, y: 0.33333334, z: 0.33333334, w: 0.33333334}
      - serializedVersion: 3
        time: 0.20000002
        value: {x: -0.53565544, y: -0.31359664, z: -0.03774663, w: 0.7831383}
        inSlope: {x: -0.6933115, y: 0.8606837, z: 1.0910234, w: -0.048715133}
        outSlope: {x: -0.6933115, y: 0.8606837, z: 1.0910234, w: -0.048715133}
        tangentMode: 0
        weightedMode: 0
        inWeight: {x: 0.33333334, y: 0.33333334, z: 0.33333334, w: 0.33333334}
        outWeight: {x: 0.33333334, y: 0.33333334, z: 0.33333334, w: 0.33333334}
      - serializedVersion: 3
        time: 0.26666668
        value: {x: -0.56031525, y: -0.24778323, z: -0.004489709, w: 0.7903355}
        inSlope: {x: -0.27085665, y: 1.0450982, z: 0.3783167, w: 0.13735862}
        outSlope: {x: -0.27085665, y: 1.0450982, z: 0.3783167, w: 0.13735862}
        tangentMode: 0
        weightedMode: 0
        inWeight: {x: 0.33333334, y: 0.33333334, z: 0.33333334, w: 0.33333334}
        outWeight: {x: 0.33333334, y: 0.33333334, z: 0.33333334, w: 0.33333334}
      - serializedVersion: 3
        time: 0.33333334
        value: {x: -0.57442474, y: -0.17289706, z: 0.017207557, w: 0.7999042}
        inSlope: {x: -0.13553293, y: 1.4493117, z: 0.1887381, w: 0.19569132}
        outSlope: {x: -0.13553293, y: 1.4493117, z: 0.1887381, w: 0.19569132}
        tangentMode: 0
        weightedMode: 0
        inWeight: {x: 0.33333334, y: 0.33333334, z: 0.33333334, w: 0.33333334}
        outWeight: {x: 0.33333334, y: 0.33333334, z: 0.33333334, w: 0.33333334}
      - serializedVersion: 3
        time: 0.36666667
        value: {x: -0.577057, y: -0.11517535, z: 0.019221788, w: 0.8083133}
        inSlope: {x: -0.07896782, y: 1.7316512, z: 0.06042693, w: 0.25227252}
        outSlope: {x: -0.07896782, y: 1.7316512, z: 0.06042693, w: 0.25227252}
        tangentMode: 0
        weightedMode: 0
        inWeight: {x: 0.33333334, y: 0.33333334, z: 0.33333334, w: 0.33333334}
        outWeight: {x: 0.33333334, y: 0.33333334, z: 0.33333334, w: 0.33333334}
      m_PreInfinity: 2
      m_PostInfinity: 2
      m_RotationOrder: 4
    path: Hips/Spine/Spine1/Spine2/RightShoulder/RightArm
  - curve:
      serializedVersion: 2
      m_Curve:
      - serializedVersion: 3
        time: 0
        value: {x: 0.052408174, y: -0.63119113, z: -0.0056829504, w: 0.77383393}
        inSlope: {x: -0.98956674, y: -0.015524625, z: 0.014678807, w: 0.03333628}
        outSlope: {x: -0.98956674, y: -0.015524625, z: 0.014678807, w: 0.03333628}
        tangentMode: 0
        weightedMode: 0
        inWeight: {x: 0.33333334, y: 0.33333334, z: 0.33333334, w: 0.33333334}
        outWeight: {x: 0.33333334, y: 0.33333334, z: 0.33333334, w: 0.33333334}
      - serializedVersion: 3
        time: 0.06666667
        value: {x: 0.007993956, y: -0.6325188, z: -0.008618277, w: 0.7744558}
        inSlope: {x: 0.003270045, y: 0.022197954, z: -0.038322695, w: 0.017658766}
        outSlope: {x: 0.003270045, y: 0.022197954, z: -0.038322695, w: 0.017658766}
        tangentMode: 0
        weightedMode: 0
        inWeight: {x: 0.33333334, y: 0.33333334, z: 0.33333334, w: 0.33333334}
        outWeight: {x: 0.33333334, y: 0.33333334, z: 0.33333334, w: 0.33333334}
      - serializedVersion: 3
        time: 0.16666667
        value: {x: 0.06349976, y: -0.6156393, z: 0.002156899, w: 0.7854625}
        inSlope: {x: 0.49788445, y: 0.19132105, z: 0.08492284, w: 0.11357634}
        outSlope: {x: 0.49788445, y: 0.19132105, z: 0.08492284, w: 0.11357634}
        tangentMode: 0
        weightedMode: 0
        inWeight: {x: 0.33333334, y: 0.33333334, z: 0.33333334, w: 0.33333334}
        outWeight: {x: 0.33333334, y: 0.33333334, z: 0.33333334, w: 0.33333334}
      - serializedVersion: 3
        time: 0.3
        value: {x: 0.07730776, y: -0.62282425, z: 0.028160319, w: 0.7780234}
        inSlope: {x: -0.030166024, y: -0.14902891, z: 0.2749326, w: -0.12638213}
        outSlope: {x: -0.030166024, y: -0.14902891, z: 0.2749326, w: -0.12638213}
        tangentMode: 0
        weightedMode: 0
        inWeight: {x: 0.33333334, y: 0.33333334, z: 0.33333334, w: 0.33333334}
        outWeight: {x: 0.33333334, y: 0.33333334, z: 0.33333334, w: 0.33333334}
      - serializedVersion: 3
        time: 0.36666667
        value: {x: 0.059063576, y: -0.63510203, z: 0.05242847, w: 0.7683802}
        inSlope: {x: -0.49074212, y: -0.21972479, z: 0.4448397, w: -0.16310336}
        outSlope: {x: -0.49074212, y: -0.21972479, z: 0.4448397, w: -0.16310336}
        tangentMode: 0
        weightedMode: 0
        inWeight: {x: 0.33333334, y: 0.33333334, z: 0.33333334, w: 0.33333334}
        outWeight: {x: 0.33333334, y: 0.33333334, z: 0.33333334, w: 0.33333334}
      m_PreInfinity: 2
      m_PostInfinity: 2
      m_RotationOrder: 4
    path: Hips/Spine/Spine1/Spine2/RightShoulder/RightArm/RightForeArm
  - curve:
      serializedVersion: 2
      m_Curve:
      - serializedVersion: 3
        time: 0
        value: {x: -0.0067210514, y: -0.06797137, z: 0.13672344, w: 0.9882517}
        inSlope: {x: 0.25728887, y: 0.039936077, z: 0.35833415, w: -0.048426386}
        outSlope: {x: 0.25728887, y: 0.039936077, z: 0.35833415, w: -0.048426386}
        tangentMode: 0
        weightedMode: 0
        inWeight: {x: 0.33333334, y: 0.33333334, z: 0.33333334, w: 0.33333334}
        outWeight: {x: 0.33333334, y: 0.33333334, z: 0.33333334, w: 0.33333334}
      - serializedVersion: 3
        time: 0.10000001
        value: {x: 0.0066939043, y: -0.029661631, z: 0.17963278, w: 0.9832637}
        inSlope: {x: -0.12831989, y: 0.749154, z: 0.8608093, w: -0.14118254}
        outSlope: {x: -0.12831989, y: 0.749154, z: 0.8608093, w: -0.14118254}
        tangentMode: 0
        weightedMode: 0
        inWeight: {x: 0.33333334, y: 0.33333334, z: 0.33333334, w: 0.33333334}
        outWeight: {x: 0.33333334, y: 0.33333334, z: 0.33333334, w: 0.33333334}
      - serializedVersion: 3
        time: 0.16666667
        value: {x: -0.008337178, y: 0.025003685, z: 0.2476737, w: 0.96848494}
        inSlope: {x: -0.17635192, y: 0.8105892, z: 0.77026355, w: -0.21212605}
        outSlope: {x: -0.17635192, y: 0.8105892, z: 0.77026355, w: -0.21212605}
        tangentMode: 0
        weightedMode: 0
        inWeight: {x: 0.33333334, y: 0.33333334, z: 0.33333334, w: 0.33333334}
        outWeight: {x: 0.33333334, y: 0.33333334, z: 0.33333334, w: 0.33333334}
      - serializedVersion: 3
        time: 0.3
        value: {x: -0.011504014, y: 0.1122898, z: 0.2924404, w: 0.9495985}
        inSlope: {x: 0.0064150346, y: 0.55880547, z: 0.19408466, w: -0.12509556}
        outSlope: {x: 0.0064150346, y: 0.55880547, z: 0.19408466, w: -0.12509556}
        tangentMode: 0
        weightedMode: 0
        inWeight: {x: 0.33333334, y: 0.33333334, z: 0.33333334, w: 0.33333334}
        outWeight: {x: 0.33333334, y: 0.33333334, z: 0.33333334, w: 0.33333334}
      - serializedVersion: 3
        time: 0.36666667
        value: {x: -0.0068237353, y: 0.13687353, z: 0.28990388, w: 0.94719315}
        inSlope: {x: 0.1325736, y: 0.20096408, z: -0.23867817, w: 0.04702807}
        outSlope: {x: 0.1325736, y: 0.20096408, z: -0.23867817, w: 0.04702807}
        tangentMode: 0
        weightedMode: 0
        inWeight: {x: 0.33333334, y: 0.33333334, z: 0.33333334, w: 0.33333334}
        outWeight: {x: 0.33333334, y: 0.33333334, z: 0.33333334, w: 0.33333334}
      m_PreInfinity: 2
      m_PostInfinity: 2
      m_RotationOrder: 4
    path: Hips/Spine/Spine1/Spine2/RightShoulder/RightArm/RightForeArm/RightHand
  - curve:
      serializedVersion: 2
      m_Curve:
      - serializedVersion: 3
        time: 0
        value: {x: 0.078552306, y: -0.032434344, z: 0.09674518, w: 0.9916743}
        inSlope: {x: 0.22365934, y: -0.3167083, z: -0.27358732, w: -0.0051695104}
        outSlope: {x: 0.22365934, y: -0.3167083, z: -0.27358732, w: -0.0051695104}
        tangentMode: 0
        weightedMode: 0
        inWeight: {x: 0.33333334, y: 0.33333334, z: 0.33333334, w: 0.33333334}
        outWeight: {x: 0.33333334, y: 0.33333334, z: 0.33333334, w: 0.33333334}
      - serializedVersion: 3
        time: 0.23333335
        value: {x: 0.091173515, y: -0.060147796, z: 0.06918741, w: 0.9916062}
        inSlope: {x: -0.08874, y: 0.14982435, z: 0.13607965, w: 0.0076586017}
        outSlope: {x: -0.08874, y: 0.14982435, z: 0.13607965, w: 0.0076586017}
        tangentMode: 0
        weightedMode: 0
        inWeight: {x: 0.33333334, y: 0.33333334, z: 0.33333334, w: 0.33333334}
        outWeight: {x: 0.33333334, y: 0.33333334, z: 0.33333334, w: 0.33333334}
      - serializedVersion: 3
        time: 0.36666667
        value: {x: 0.07855239, y: -0.03243439, z: 0.0967452, w: 0.9916743}
        inSlope: {x: -0.093562834, y: 0.31430462, z: 0.3347777, w: -0.011276008}
        outSlope: {x: -0.093562834, y: 0.31430462, z: 0.3347777, w: -0.011276008}
        tangentMode: 0
        weightedMode: 0
        inWeight: {x: 0.33333334, y: 0.33333334, z: 0.33333334, w: 0.33333334}
        outWeight: {x: 0.33333334, y: 0.33333334, z: 0.33333334, w: 0.33333334}
      m_PreInfinity: 2
      m_PostInfinity: 2
      m_RotationOrder: 4
    path: Hips/Spine/Spine1/Spine2/RightShoulder/RightArm/RightForeArm/RightHand/RightHandThumb1
  - curve:
      serializedVersion: 2
      m_Curve:
      - serializedVersion: 3
        time: 0
        value: {x: 0.07921987, y: 0.37949497, z: -0.07559321, w: 0.91869116}
        inSlope: {x: -0.5805167, y: -0.58260524, z: -0.426627, w: 0.23900984}
        outSlope: {x: -0.5805167, y: -0.58260524, z: -0.426627, w: 0.23900984}
        tangentMode: 0
        weightedMode: 0
        inWeight: {x: 0.33333334, y: 0.33333334, z: 0.33333334, w: 0.33333334}
        outWeight: {x: 0.33333334, y: 0.33333334, z: 0.33333334, w: 0.33333334}
      - serializedVersion: 3
        time: 0.20000002
        value: {x: 0.038068533, y: 0.31143224, z: -0.13029833, w: 0.9405228}
        inSlope: {x: 0.18774578, y: 0.11770966, z: 0.07904829, w: -0.03715128}
        outSlope: {x: 0.18774578, y: 0.11770966, z: 0.07904829, w: -0.03715128}
        tangentMode: 0
        weightedMode: 0
        inWeight: {x: 0.33333334, y: 0.33333334, z: 0.33333334, w: 0.33333334}
        outWeight: {x: 0.33333334, y: 0.33333334, z: 0.33333334, w: 0.33333334}
      - serializedVersion: 3
        time: 0.3
        value: {x: 0.063456185, y: 0.3431947, z: -0.10572662, w: 0.9311351}
        inSlope: {x: 0.24757177, y: 0.37824023, z: 0.2845291, w: -0.12436868}
        outSlope: {x: 0.24757177, y: 0.37824023, z: 0.2845291, w: -0.12436868}
        tangentMode: 0
        weightedMode: 0
        inWeight: {x: 0.33333334, y: 0.33333334, z: 0.33333334, w: 0.33333334}
        outWeight: {x: 0.33333334, y: 0.33333334, z: 0.33333334, w: 0.33333334}
      - serializedVersion: 3
        time: 0.36666667
        value: {x: 0.0792198, y: 0.37949485, z: -0.075593196, w: 0.9186912}
        inSlope: {x: 0.2315759, y: 0.69174534, z: 0.6052246, w: -0.2385843}
        outSlope: {x: 0.2315759, y: 0.69174534, z: 0.6052246, w: -0.2385843}
        tangentMode: 0
        weightedMode: 0
        inWeight: {x: 0.33333334, y: 0.33333334, z: 0.33333334, w: 0.33333334}
        outWeight: {x: 0.33333334, y: 0.33333334, z: 0.33333334, w: 0.33333334}
      m_PreInfinity: 2
      m_PostInfinity: 2
      m_RotationOrder: 4
    path: Hips/Spine/Spine1/Spine2/RightShoulder/RightArm/RightForeArm/RightHand/RightHandThumb1/RightHandThumb2
  - curve:
      serializedVersion: 2
      m_Curve:
      - serializedVersion: 3
        time: 0
        value: {x: 0.24252856, y: 0.380521, z: 0.095026135, w: 0.8873295}
        inSlope: {x: -0.01268953, y: 0.86886847, z: -0.5068313, w: -0.335986}
        outSlope: {x: -0.01268953, y: 0.86886847, z: -0.5068313, w: -0.335986}
        tangentMode: 0
        weightedMode: 0
        inWeight: {x: 0.33333334, y: 0.33333334, z: 0.33333334, w: 0.33333334}
        outWeight: {x: 0.33333334, y: 0.33333334, z: 0.33333334, w: 0.33333334}
      - serializedVersion: 3
        time: 0.13333334
        value: {x: 0.2304465, y: 0.4493496, z: 0.02958276, w: 0.86261475}
        inSlope: {x: -0.15417741, y: 0.083997406, z: -0.37611836, w: 0.010951459}
        outSlope: {x: -0.15417741, y: 0.083997406, z: -0.37611836, w: 0.010951459}
        tangentMode: 0
        weightedMode: 0
        inWeight: {x: 0.33333334, y: 0.33333334, z: 0.33333334, w: 0.33333334}
        outWeight: {x: 0.33333334, y: 0.33333334, z: 0.33333334, w: 0.33333334}
      - serializedVersion: 3
        time: 0.20000002
        value: {x: 0.22117694, y: 0.4446178, z: 0.013249756, w: 0.8678826}
        inSlope: {x: -0.045611836, y: -0.27085167, z: 0.07939398, w: 0.14756082}
        outSlope: {x: -0.045611836, y: -0.27085167, z: 0.07939398, w: 0.14756082}
        tangentMode: 0
        weightedMode: 0
        inWeight: {x: 0.33333334, y: 0.33333334, z: 0.33333334, w: 0.33333334}
        outWeight: {x: 0.33333334, y: 0.33333334, z: 0.33333334, w: 0.33333334}
      - serializedVersion: 3
        time: 0.3
        value: {x: 0.22693105, y: 0.4061036, z: 0.04930184, w: 0.88382775}
        inSlope: {x: 0.098414056, y: -0.4008754, z: 0.44104275, w: 0.13393702}
        outSlope: {x: 0.098414056, y: -0.4008754, z: 0.44104275, w: 0.13393702}
        tangentMode: 0
        weightedMode: 0
        inWeight: {x: 0.33333334, y: 0.33333334, z: 0.33333334, w: 0.33333334}
        outWeight: {x: 0.33333334, y: 0.33333334, z: 0.33333334, w: 0.33333334}
      - serializedVersion: 3
        time: 0.36666667
        value: {x: 0.24252851, y: 0.38052106, z: 0.09502603, w: 0.8873295}
        inSlope: {x: 0.35358626, y: -0.36870363, z: 0.9048647, w: -0.015149117}
        outSlope: {x: 0.35358626, y: -0.36870363, z: 0.9048647, w: -0.015149117}
        tangentMode: 0
        weightedMode: 0
        inWeight: {x: 0.33333334, y: 0.33333334, z: 0.33333334, w: 0.33333334}
        outWeight: {x: 0.33333334, y: 0.33333334, z: 0.33333334, w: 0.33333334}
      m_PreInfinity: 2
      m_PostInfinity: 2
      m_RotationOrder: 4
    path: Hips/Spine/Spine1/Spine2/RightShoulder/RightArm/RightForeArm/RightHand/RightHandThumb1/RightHandThumb2/RightHandThumb3
  - curve:
      serializedVersion: 2
      m_Curve:
      - serializedVersion: 3
        time: 0
        value: {x: 0.14180559, y: 0.044001337, z: -0.27147838, w: 0.950923}
        inSlope: {x: 0, y: 0, z: 0, w: 0}
        outSlope: {x: 0, y: 0, z: 0, w: 0}
        tangentMode: 0
        weightedMode: 0
        inWeight: {x: 0.33333334, y: 0.33333334, z: 0.33333334, w: 0.33333334}
        outWeight: {x: 0.33333334, y: 0.33333334, z: 0.33333334, w: 0.33333334}
      - serializedVersion: 3
        time: 0.36666667
        value: {x: 0.14180559, y: 0.044001337, z: -0.27147838, w: 0.950923}
        inSlope: {x: 0, y: 0, z: 0, w: 0}
        outSlope: {x: 0, y: 0, z: 0, w: 0}
        tangentMode: 0
        weightedMode: 0
        inWeight: {x: 0.33333334, y: 0.33333334, z: 0.33333334, w: 0.33333334}
        outWeight: {x: 0.33333334, y: 0.33333334, z: 0.33333334, w: 0.33333334}
      m_PreInfinity: 2
      m_PostInfinity: 2
      m_RotationOrder: 4
    path: Hips/Spine/Spine1/Spine2/RightShoulder/RightArm/RightForeArm/RightHand/RightHandIndex1
  - curve:
      serializedVersion: 2
      m_Curve:
      - serializedVersion: 3
        time: 0
        value: {x: -0.0030528521, y: -0.00047742156, z: -0.8329755, w: 0.5533012}
        inSlope: {x: 0, y: 0, z: 0, w: 0}
        outSlope: {x: 0, y: 0, z: 0, w: 0}
        tangentMode: 0
        weightedMode: 0
        inWeight: {x: 0.33333334, y: 0.33333334, z: 0.33333334, w: 0.33333334}
        outWeight: {x: 0.33333334, y: 0.33333334, z: 0.33333334, w: 0.33333334}
      - serializedVersion: 3
        time: 0.033333335
        value: {x: -0.0030528521, y: -0.00047742156, z: -0.8329755, w: 0.5533012}
        inSlope: {x: 0, y: 0, z: 0, w: 0}
        outSlope: {x: 0, y: 0, z: 0, w: 0}
        tangentMode: 0
        weightedMode: 0
        inWeight: {x: 0.33333334, y: 0.33333334, z: 0.33333334, w: 0.33333334}
        outWeight: {x: 0.33333334, y: 0.33333334, z: 0.33333334, w: 0.33333334}
      m_PreInfinity: 2
      m_PostInfinity: 2
      m_RotationOrder: 4
    path: Hips/Spine/Spine1/Spine2/RightShoulder/RightArm/RightForeArm/RightHand/RightHandIndex1/RightHandIndex2
  - curve:
      serializedVersion: 2
      m_Curve:
      - serializedVersion: 3
        time: 0
        value: {x: 0.0050413953, y: -0.0025338707, z: -0.29746285, w: 0.95471674}
        inSlope: {x: 0, y: 0, z: 0, w: 0}
        outSlope: {x: 0, y: 0, z: 0, w: 0}
        tangentMode: 0
        weightedMode: 0
        inWeight: {x: 0.33333334, y: 0.33333334, z: 0.33333334, w: 0.33333334}
        outWeight: {x: 0.33333334, y: 0.33333334, z: 0.33333334, w: 0.33333334}
      - serializedVersion: 3
        time: 0.36666667
        value: {x: 0.0050413953, y: -0.0025338707, z: -0.29746285, w: 0.95471674}
        inSlope: {x: 0, y: 0, z: 0, w: 0}
        outSlope: {x: 0, y: 0, z: 0, w: 0}
        tangentMode: 0
        weightedMode: 0
        inWeight: {x: 0.33333334, y: 0.33333334, z: 0.33333334, w: 0.33333334}
        outWeight: {x: 0.33333334, y: 0.33333334, z: 0.33333334, w: 0.33333334}
      m_PreInfinity: 2
      m_PostInfinity: 2
      m_RotationOrder: 4
    path: Hips/Spine/Spine1/Spine2/RightShoulder/RightArm/RightForeArm/RightHand/RightHandIndex1/RightHandIndex2/RightHandIndex3
  - curve:
      serializedVersion: 2
      m_Curve:
      - serializedVersion: 3
        time: 0
        value: {x: 0.015841292, y: 0.08962634, z: -0.7757504, w: 0.62444174}
        inSlope: {x: 0, y: 0, z: 0, w: 0}
        outSlope: {x: 0, y: 0, z: 0, w: 0}
        tangentMode: 0
        weightedMode: 0
        inWeight: {x: 0.33333334, y: 0.33333334, z: 0.33333334, w: 0.33333334}
        outWeight: {x: 0.33333334, y: 0.33333334, z: 0.33333334, w: 0.33333334}
      - serializedVersion: 3
        time: 0.033333335
        value: {x: 0.015841292, y: 0.08962634, z: -0.7757504, w: 0.62444174}
        inSlope: {x: 0, y: 0, z: 0, w: 0}
        outSlope: {x: 0, y: 0, z: 0, w: 0}
        tangentMode: 0
        weightedMode: 0
        inWeight: {x: 0.33333334, y: 0.33333334, z: 0.33333334, w: 0.33333334}
        outWeight: {x: 0.33333334, y: 0.33333334, z: 0.33333334, w: 0.33333334}
      m_PreInfinity: 2
      m_PostInfinity: 2
      m_RotationOrder: 4
    path: Hips/Spine/Spine1/Spine2/RightShoulder/RightArm/RightForeArm/RightHand/RightHandMiddle1
  - curve:
      serializedVersion: 2
      m_Curve:
      - serializedVersion: 3
        time: 0
        value: {x: 0.000027497332, y: -0.000011040546, z: -0.50769866, w: 0.8615347}
        inSlope: {x: 0, y: 0, z: 0, w: 0}
        outSlope: {x: 0, y: 0, z: 0, w: 0}
        tangentMode: 0
        weightedMode: 0
        inWeight: {x: 0.33333334, y: 0.33333334, z: 0.33333334, w: 0.33333334}
        outWeight: {x: 0.33333334, y: 0.33333334, z: 0.33333334, w: 0.33333334}
      - serializedVersion: 3
        time: 0.033333335
        value: {x: 0.000027497332, y: -0.000011040546, z: -0.50769866, w: 0.8615347}
        inSlope: {x: 0, y: 0, z: 0, w: 0}
        outSlope: {x: 0, y: 0, z: 0, w: 0}
        tangentMode: 0
        weightedMode: 0
        inWeight: {x: 0.33333334, y: 0.33333334, z: 0.33333334, w: 0.33333334}
        outWeight: {x: 0.33333334, y: 0.33333334, z: 0.33333334, w: 0.33333334}
      m_PreInfinity: 2
      m_PostInfinity: 2
      m_RotationOrder: 4
    path: Hips/Spine/Spine1/Spine2/RightShoulder/RightArm/RightForeArm/RightHand/RightHandMiddle1/RightHandMiddle2
  - curve:
      serializedVersion: 2
      m_Curve:
      - serializedVersion: 3
        time: 0
        value: {x: 0.016537305, y: 0.0013991427, z: -0.27095565, w: 0.9624488}
        inSlope: {x: 0, y: 0, z: 0, w: 0}
        outSlope: {x: 0, y: 0, z: 0, w: 0}
        tangentMode: 0
        weightedMode: 0
        inWeight: {x: 0.33333334, y: 0.33333334, z: 0.33333334, w: 0.33333334}
        outWeight: {x: 0.33333334, y: 0.33333334, z: 0.33333334, w: 0.33333334}
      - serializedVersion: 3
        time: 0.033333335
        value: {x: 0.016537305, y: 0.0013991427, z: -0.27095565, w: 0.9624488}
        inSlope: {x: 0, y: 0, z: 0, w: 0}
        outSlope: {x: 0, y: 0, z: 0, w: 0}
        tangentMode: 0
        weightedMode: 0
        inWeight: {x: 0.33333334, y: 0.33333334, z: 0.33333334, w: 0.33333334}
        outWeight: {x: 0.33333334, y: 0.33333334, z: 0.33333334, w: 0.33333334}
      m_PreInfinity: 2
      m_PostInfinity: 2
      m_RotationOrder: 4
    path: Hips/Spine/Spine1/Spine2/RightShoulder/RightArm/RightForeArm/RightHand/RightHandMiddle1/RightHandMiddle2/RightHandMiddle3
  - curve:
      serializedVersion: 2
      m_Curve:
      - serializedVersion: 3
        time: 0
        value: {x: -0.033978388, y: 0.084765956, z: -0.79996073, w: 0.5930624}
        inSlope: {x: 0, y: 0, z: 0, w: 0}
        outSlope: {x: 0, y: 0, z: 0, w: 0}
        tangentMode: 0
        weightedMode: 0
        inWeight: {x: 0.33333334, y: 0.33333334, z: 0.33333334, w: 0.33333334}
        outWeight: {x: 0.33333334, y: 0.33333334, z: 0.33333334, w: 0.33333334}
      - serializedVersion: 3
        time: 0.36666667
        value: {x: -0.033978388, y: 0.084765956, z: -0.79996073, w: 0.5930624}
        inSlope: {x: 0, y: 0, z: 0, w: 0}
        outSlope: {x: 0, y: 0, z: 0, w: 0}
        tangentMode: 0
        weightedMode: 0
        inWeight: {x: 0.33333334, y: 0.33333334, z: 0.33333334, w: 0.33333334}
        outWeight: {x: 0.33333334, y: 0.33333334, z: 0.33333334, w: 0.33333334}
      m_PreInfinity: 2
      m_PostInfinity: 2
      m_RotationOrder: 4
    path: Hips/Spine/Spine1/Spine2/RightShoulder/RightArm/RightForeArm/RightHand/RightHandRing1
  - curve:
      serializedVersion: 2
      m_Curve:
      - serializedVersion: 3
        time: 0
        value: {x: 0.0015093972, y: -0.0062646815, z: -0.3509374, w: 0.93637675}
        inSlope: {x: 0, y: 0, z: 0, w: 0}
        outSlope: {x: 0, y: 0, z: 0, w: 0}
        tangentMode: 0
        weightedMode: 0
        inWeight: {x: 0.33333334, y: 0.33333334, z: 0.33333334, w: 0.33333334}
        outWeight: {x: 0.33333334, y: 0.33333334, z: 0.33333334, w: 0.33333334}
      - serializedVersion: 3
        time: 0.033333335
        value: {x: 0.0015093972, y: -0.0062646815, z: -0.3509374, w: 0.93637675}
        inSlope: {x: 0, y: 0, z: 0, w: 0}
        outSlope: {x: 0, y: 0, z: 0, w: 0}
        tangentMode: 0
        weightedMode: 0
        inWeight: {x: 0.33333334, y: 0.33333334, z: 0.33333334, w: 0.33333334}
        outWeight: {x: 0.33333334, y: 0.33333334, z: 0.33333334, w: 0.33333334}
      m_PreInfinity: 2
      m_PostInfinity: 2
      m_RotationOrder: 4
    path: Hips/Spine/Spine1/Spine2/RightShoulder/RightArm/RightForeArm/RightHand/RightHandRing1/RightHandRing2
  - curve:
      serializedVersion: 2
      m_Curve:
      - serializedVersion: 3
        time: 0
        value: {x: 0.005353834, y: 0.0035380817, z: -0.43294695, w: 0.9013966}
        inSlope: {x: 0, y: 0, z: 0, w: 0}
        outSlope: {x: 0, y: 0, z: 0, w: 0}
        tangentMode: 0
        weightedMode: 0
        inWeight: {x: 0.33333334, y: 0.33333334, z: 0.33333334, w: 0.33333334}
        outWeight: {x: 0.33333334, y: 0.33333334, z: 0.33333334, w: 0.33333334}
      - serializedVersion: 3
        time: 0.033333335
        value: {x: 0.005353834, y: 0.0035380817, z: -0.43294695, w: 0.9013966}
        inSlope: {x: 0, y: 0, z: 0, w: 0}
        outSlope: {x: 0, y: 0, z: 0, w: 0}
        tangentMode: 0
        weightedMode: 0
        inWeight: {x: 0.33333334, y: 0.33333334, z: 0.33333334, w: 0.33333334}
        outWeight: {x: 0.33333334, y: 0.33333334, z: 0.33333334, w: 0.33333334}
      m_PreInfinity: 2
      m_PostInfinity: 2
      m_RotationOrder: 4
    path: Hips/Spine/Spine1/Spine2/RightShoulder/RightArm/RightForeArm/RightHand/RightHandRing1/RightHandRing2/RightHandRing3
  - curve:
      serializedVersion: 2
      m_Curve:
      - serializedVersion: 3
        time: 0
        value: {x: -0.075774014, y: 0.13956045, z: -0.7408767, w: 0.65259707}
        inSlope: {x: 0, y: 0, z: 0, w: 0}
        outSlope: {x: 0, y: 0, z: 0, w: 0}
        tangentMode: 0
        weightedMode: 0
        inWeight: {x: 0.33333334, y: 0.33333334, z: 0.33333334, w: 0.33333334}
        outWeight: {x: 0.33333334, y: 0.33333334, z: 0.33333334, w: 0.33333334}
      - serializedVersion: 3
        time: 0.36666667
        value: {x: -0.075774014, y: 0.13956045, z: -0.7408767, w: 0.65259707}
        inSlope: {x: 0, y: 0, z: 0, w: 0}
        outSlope: {x: 0, y: 0, z: 0, w: 0}
        tangentMode: 0
        weightedMode: 0
        inWeight: {x: 0.33333334, y: 0.33333334, z: 0.33333334, w: 0.33333334}
        outWeight: {x: 0.33333334, y: 0.33333334, z: 0.33333334, w: 0.33333334}
      m_PreInfinity: 2
      m_PostInfinity: 2
      m_RotationOrder: 4
    path: Hips/Spine/Spine1/Spine2/RightShoulder/RightArm/RightForeArm/RightHand/RightHandPinky1
  - curve:
      serializedVersion: 2
      m_Curve:
      - serializedVersion: 3
        time: 0
        value: {x: 0.000008801265, y: -0.000011441437, z: -0.37335828, w: 0.9276873}
        inSlope: {x: 0, y: 0, z: 0, w: 0}
        outSlope: {x: 0, y: 0, z: 0, w: 0}
        tangentMode: 0
        weightedMode: 0
        inWeight: {x: 0.33333334, y: 0.33333334, z: 0.33333334, w: 0.33333334}
        outWeight: {x: 0.33333334, y: 0.33333334, z: 0.33333334, w: 0.33333334}
      - serializedVersion: 3
        time: 0.36666667
        value: {x: 0.000008801265, y: -0.000011441437, z: -0.37335828, w: 0.9276873}
        inSlope: {x: 0, y: 0, z: 0, w: 0}
        outSlope: {x: 0, y: 0, z: 0, w: 0}
        tangentMode: 0
        weightedMode: 0
        inWeight: {x: 0.33333334, y: 0.33333334, z: 0.33333334, w: 0.33333334}
        outWeight: {x: 0.33333334, y: 0.33333334, z: 0.33333334, w: 0.33333334}
      m_PreInfinity: 2
      m_PostInfinity: 2
      m_RotationOrder: 4
    path: Hips/Spine/Spine1/Spine2/RightShoulder/RightArm/RightForeArm/RightHand/RightHandPinky1/RightHandPinky2
  - curve:
      serializedVersion: 2
      m_Curve:
      - serializedVersion: 3
        time: 0
        value: {x: -0.000018550316, y: 0.00002581168, z: -0.48293525, w: 0.87565607}
        inSlope: {x: 0, y: 0, z: 0, w: 0}
        outSlope: {x: 0, y: 0, z: 0, w: 0}
        tangentMode: 0
        weightedMode: 0
        inWeight: {x: 0.33333334, y: 0.33333334, z: 0.33333334, w: 0.33333334}
        outWeight: {x: 0.33333334, y: 0.33333334, z: 0.33333334, w: 0.33333334}
      - serializedVersion: 3
        time: 0.033333335
        value: {x: -0.000018550316, y: 0.00002581168, z: -0.48293525, w: 0.87565607}
        inSlope: {x: 0, y: 0, z: 0, w: 0}
        outSlope: {x: 0, y: 0, z: 0, w: 0}
        tangentMode: 0
        weightedMode: 0
        inWeight: {x: 0.33333334, y: 0.33333334, z: 0.33333334, w: 0.33333334}
        outWeight: {x: 0.33333334, y: 0.33333334, z: 0.33333334, w: 0.33333334}
      m_PreInfinity: 2
      m_PostInfinity: 2
      m_RotationOrder: 4
    path: Hips/Spine/Spine1/Spine2/RightShoulder/RightArm/RightForeArm/RightHand/RightHandPinky1/RightHandPinky2/RightHandPinky3
  - curve:
      serializedVersion: 2
      m_Curve:
      - serializedVersion: 3
        time: 0
        value: {x: 0.0088216765, y: 0.3964979, z: -0.07615662, w: 0.91482884}
        inSlope: {x: -0.30037612, y: -0.2752751, z: -0.5459104, w: 0.068219304}
        outSlope: {x: -0.30037612, y: -0.2752751, z: -0.5459104, w: 0.068219304}
        tangentMode: 0
        weightedMode: 0
        inWeight: {x: 0.33333334, y: 0.33333334, z: 0.33333334, w: 0.33333334}
        outWeight: {x: 0.33333334, y: 0.33333334, z: 0.33333334, w: 0.33333334}
      - serializedVersion: 3
        time: 0.16666667
        value: {x: -0.030459482, y: 0.37437892, z: -0.19019066, w: 0.9070503}
        inSlope: {x: -0.19607681, y: 0.08365763, z: -0.7239328, w: -0.19283739}
        outSlope: {x: -0.19607681, y: 0.08365763, z: -0.7239328, w: -0.19283739}
        tangentMode: 0
        weightedMode: 0
        inWeight: {x: 0.33333334, y: 0.33333334, z: 0.33333334, w: 0.33333334}
        outWeight: {x: 0.33333334, y: 0.33333334, z: 0.33333334, w: 0.33333334}
      - serializedVersion: 3
        time: 0.36666667
        value: {x: -0.056090318, y: 0.38466007, z: -0.30642614, w: 0.86890364}
        inSlope: {x: -0.089285046, y: 0.12631418, z: -0.3481436, w: -0.18104734}
        outSlope: {x: -0.089285046, y: 0.12631418, z: -0.3481436, w: -0.18104734}
        tangentMode: 0
        weightedMode: 0
        inWeight: {x: 0.33333334, y: 0.33333334, z: 0.33333334, w: 0.33333334}
        outWeight: {x: 0.33333334, y: 0.33333334, z: 0.33333334, w: 0.33333334}
      m_PreInfinity: 2
      m_PostInfinity: 2
      m_RotationOrder: 4
    path: Hips/Spine/Spine1/Spine2/LeftShoulder
  - curve:
      serializedVersion: 2
      m_Curve:
      - serializedVersion: 3
        time: 0
        value: {x: -0.40455955, y: 0.20738098, z: 0.36954436, w: 0.81040835}
        inSlope: {x: 0.1393497, y: 0.21180241, z: -0.027675925, w: 0.026632546}
        outSlope: {x: 0.1393497, y: 0.21180241, z: -0.027675925, w: 0.026632546}
        tangentMode: 0
        weightedMode: 0
        inWeight: {x: 0.33333334, y: 0.33333334, z: 0.33333334, w: 0.33333334}
        outWeight: {x: 0.33333334, y: 0.33333334, z: 0.33333334, w: 0.33333334}
      - serializedVersion: 3
        time: 0.06666667
        value: {x: -0.41105467, y: 0.20930675, z: 0.3705101, w: 0.80619293}
        inSlope: {x: -0.8507631, y: -0.26456657, z: 0.032690313, w: -0.40364558}
        outSlope: {x: -0.8507631, y: -0.26456657, z: 0.032690313, w: -0.40364558}
        tangentMode: 0
        weightedMode: 0
        inWeight: {x: 0.33333334, y: 0.33333334, z: 0.33333334, w: 0.33333334}
        outWeight: {x: 0.33333334, y: 0.33333334, z: 0.33333334, w: 0.33333334}
      - serializedVersion: 3
        time: 0.10000001
        value: {x: -0.4566321, y: 0.19680329, z: 0.37080118, w: 0.7843864}
        inSlope: {x: -1.836529, y: -0.3415842, z: -0.111962564, w: -0.9808293}
        outSlope: {x: -1.836529, y: -0.3415842, z: -0.111962564, w: -0.9808293}
        tangentMode: 0
        weightedMode: 0
        inWeight: {x: 0.33333334, y: 0.33333334, z: 0.33333334, w: 0.33333334}
        outWeight: {x: 0.33333334, y: 0.33333334, z: 0.33333334, w: 0.33333334}
      - serializedVersion: 3
        time: 0.13333334
        value: {x: -0.53348994, y: 0.18653446, z: 0.36304593, w: 0.7408043}
        inSlope: {x: -2.2502093, y: -0.23553061, z: -0.21925004, w: -1.4570136}
        outSlope: {x: -2.2502093, y: -0.23553061, z: -0.21925004, w: -1.4570136}
        tangentMode: 0
        weightedMode: 0
        inWeight: {x: 0.33333334, y: 0.33333334, z: 0.33333334, w: 0.33333334}
        outWeight: {x: 0.33333334, y: 0.33333334, z: 0.33333334, w: 0.33333334}
      - serializedVersion: 3
        time: 0.20000002
        value: {x: -0.65603226, y: 0.18149006, z: 0.350928, w: 0.643065}
        inSlope: {x: -1.0060838, y: -0.002897236, z: -0.24306713, w: -0.8482001}
        outSlope: {x: -1.0060838, y: -0.002897236, z: -0.24306713, w: -0.8482001}
        tangentMode: 0
        weightedMode: 0
        inWeight: {x: 0.33333334, y: 0.33333334, z: 0.33333334, w: 0.33333334}
        outWeight: {x: 0.33333334, y: 0.33333334, z: 0.33333334, w: 0.33333334}
      - serializedVersion: 3
        time: 0.23333335
        value: {x: -0.67371833, y: 0.1809081, z: 0.33998004, w: 0.6307055}
        inSlope: {x: -0.4687903, y: -0.009775759, z: -0.34151587, w: -0.31159046}
        outSlope: {x: -0.4687903, y: -0.009775759, z: -0.34151587, w: -0.31159046}
        tangentMode: 0
        weightedMode: 0
        inWeight: {x: 0.33333334, y: 0.33333334, z: 0.33333334, w: 0.33333334}
        outWeight: {x: 0.33333334, y: 0.33333334, z: 0.33333334, w: 0.33333334}
      - serializedVersion: 3
        time: 0.36666667
        value: {x: -0.72293234, y: 0.17499678, z: 0.27959588, w: 0.6071006}
        inSlope: {x: -0.34725133, y: -0.1708697, z: -0.66094285, w: -0.04370213}
        outSlope: {x: -0.34725133, y: -0.1708697, z: -0.66094285, w: -0.04370213}
        tangentMode: 0
        weightedMode: 0
        inWeight: {x: 0.33333334, y: 0.33333334, z: 0.33333334, w: 0.33333334}
        outWeight: {x: 0.33333334, y: 0.33333334, z: 0.33333334, w: 0.33333334}
      m_PreInfinity: 2
      m_PostInfinity: 2
      m_RotationOrder: 4
    path: Hips/Spine/Spine1/Spine2/LeftShoulder/LeftArm
  - curve:
      serializedVersion: 2
      m_Curve:
      - serializedVersion: 3
        time: 0
        value: {x: -0.1949062, y: 0.49851125, z: 0.1582113, w: 0.8297393}
        inSlope: {x: -1.1045291, y: 0.02849221, z: -0.27033672, w: -0.25229394}
        outSlope: {x: -1.1045291, y: 0.02849221, z: -0.27033672, w: -0.25229394}
        tangentMode: 0
        weightedMode: 0
        inWeight: {x: 0.33333334, y: 0.33333334, z: 0.33333334, w: 0.33333334}
        outWeight: {x: 0.33333334, y: 0.33333334, z: 0.33333334, w: 0.33333334}
      - serializedVersion: 3
        time: 0.06666667
        value: {x: -0.2624207, y: 0.5100875, z: 0.15279186, w: 0.8047365}
        inSlope: {x: -0.6260414, y: 0.37594998, z: 0.2599257, w: -0.48645252}
        outSlope: {x: -0.6260414, y: 0.37594998, z: 0.2599257, w: -0.48645252}
        tangentMode: 0
        weightedMode: 0
        inWeight: {x: 0.33333334, y: 0.33333334, z: 0.33333334, w: 0.33333334}
        outWeight: {x: 0.33333334, y: 0.33333334, z: 0.33333334, w: 0.33333334}
      - serializedVersion: 3
        time: 0.13333334
        value: {x: -0.26731172, y: 0.5290383, z: 0.17992768, w: 0.78504074}
        inSlope: {x: 0.18707694, y: 0.087128885, z: 0.363168, w: -0.07736743}
        outSlope: {x: 0.18707694, y: 0.087128885, z: 0.363168, w: -0.07736743}
        tangentMode: 0
        weightedMode: 0
        inWeight: {x: 0.33333334, y: 0.33333334, z: 0.33333334, w: 0.33333334}
        outWeight: {x: 0.33333334, y: 0.33333334, z: 0.33333334, w: 0.33333334}
      - serializedVersion: 3
        time: 0.16666667
        value: {x: -0.26098815, y: 0.5303329, z: 0.19073966, w: 0.7837415}
        inSlope: {x: -0.012744464, y: -0.11581147, z: 0.1771892, w: 0.031144002}
        outSlope: {x: -0.012744464, y: -0.11581147, z: 0.1771892, w: 0.031144002}
        tangentMode: 0
        weightedMode: 0
        inWeight: {x: 0.33333334, y: 0.33333334, z: 0.33333334, w: 0.33333334}
        outWeight: {x: 0.33333334, y: 0.33333334, z: 0.33333334, w: 0.33333334}
      - serializedVersion: 3
        time: 0.23333335
        value: {x: -0.27762562, y: 0.51439553, z: 0.1912799, w: 0.7885007}
        inSlope: {x: -0.2933711, y: -0.20082326, z: -0.021554904, w: 0.032891933}
        outSlope: {x: -0.2933711, y: -0.20082326, z: -0.021554904, w: 0.032891933}
        tangentMode: 0
        weightedMode: 0
        inWeight: {x: 0.33333334, y: 0.33333334, z: 0.33333334, w: 0.33333334}
        outWeight: {x: 0.33333334, y: 0.33333334, z: 0.33333334, w: 0.33333334}
      - serializedVersion: 3
        time: 0.36666667
        value: {x: -0.31036854, y: 0.48648825, z: 0.19017808, w: 0.7942499}
        inSlope: {x: -0.09734631, y: -0.25894406, z: 0.05998716, w: 0.10813058}
        outSlope: {x: -0.09734631, y: -0.25894406, z: 0.05998716, w: 0.10813058}
        tangentMode: 0
        weightedMode: 0
        inWeight: {x: 0.33333334, y: 0.33333334, z: 0.33333334, w: 0.33333334}
        outWeight: {x: 0.33333334, y: 0.33333334, z: 0.33333334, w: 0.33333334}
      m_PreInfinity: 2
      m_PostInfinity: 2
      m_RotationOrder: 4
    path: Hips/Spine/Spine1/Spine2/LeftShoulder/LeftArm/LeftForeArm
  - curve:
      serializedVersion: 2
      m_Curve:
      - serializedVersion: 3
        time: 0
        value: {x: -0.0041617397, y: 0.12991358, z: 0.07269972, w: 0.98884773}
        inSlope: {x: 0.3302724, y: 0.7403813, z: -0.34314996, w: -0.08383154}
        outSlope: {x: 0.3302724, y: 0.7403813, z: -0.34314996, w: -0.08383154}
        tangentMode: 0
        weightedMode: 0
        inWeight: {x: 0.33333334, y: 0.33333334, z: 0.33333334, w: 0.33333334}
        outWeight: {x: 0.33333334, y: 0.33333334, z: 0.33333334, w: 0.33333334}
      - serializedVersion: 3
        time: 0.10000001
        value: {x: 0.02061243, y: 0.1853884, z: 0.05423812, w: 0.98095083}
        inSlope: {x: 0.23365021, y: 0.08477029, z: 0.6038788, w: -0.06215751}
        outSlope: {x: 0.23365021, y: 0.08477029, z: 0.6038788, w: -0.06215751}
        tangentMode: 0
        weightedMode: 0
        inWeight: {x: 0.33333334, y: 0.33333334, z: 0.33333334, w: 0.33333334}
        outWeight: {x: 0.33333334, y: 0.33333334, z: 0.33333334, w: 0.33333334}
      - serializedVersion: 3
        time: 0.20000002
        value: {x: 0.03651352, y: 0.18529037, z: 0.15153472, w: 0.97024304}
        inSlope: {x: -0.13914281, y: 0.2810074, z: 0.47898337, w: -0.11917767}
        outSlope: {x: -0.13914281, y: 0.2810074, z: 0.47898337, w: -0.11917767}
        tangentMode: 0
        weightedMode: 0
        inWeight: {x: 0.33333334, y: 0.33333334, z: 0.33333334, w: 0.33333334}
        outWeight: {x: 0.33333334, y: 0.33333334, z: 0.33333334, w: 0.33333334}
      - serializedVersion: 3
        time: 0.3
        value: {x: 0.0068122037, y: 0.2233609, z: 0.15988049, w: 0.9615101}
        inSlope: {x: -0.29442126, y: 0.35394055, z: 0.021092894, w: -0.083108254}
        outSlope: {x: -0.29442126, y: 0.35394055, z: 0.021092894, w: -0.083108254}
        tangentMode: 0
        weightedMode: 0
        inWeight: {x: 0.33333334, y: 0.33333334, z: 0.33333334, w: 0.33333334}
        outWeight: {x: 0.33333334, y: 0.33333334, z: 0.33333334, w: 0.33333334}
      - serializedVersion: 3
        time: 0.36666667
        value: {x: -0.004774788, y: 0.23315996, z: 0.15388732, w: 0.9601731}
        inSlope: {x: -0.070547715, y: -0.03203318, z: -0.19551338, w: 0.039557222}
        outSlope: {x: -0.070547715, y: -0.03203318, z: -0.19551338, w: 0.039557222}
        tangentMode: 0
        weightedMode: 0
        inWeight: {x: 0.33333334, y: 0.33333334, z: 0.33333334, w: 0.33333334}
        outWeight: {x: 0.33333334, y: 0.33333334, z: 0.33333334, w: 0.33333334}
      m_PreInfinity: 2
      m_PostInfinity: 2
      m_RotationOrder: 4
    path: Hips/Spine/Spine1/Spine2/LeftShoulder/LeftArm/LeftForeArm/LeftHand
  - curve:
      serializedVersion: 2
      m_Curve:
      - serializedVersion: 3
        time: 0
        value: {x: 0.13149771, y: -0.11502972, z: 0.04277046, w: 0.9836906}
        inSlope: {x: 0.003787279, y: -0.13321638, z: 0.08941132, w: -0.020415185}
        outSlope: {x: 0.003787279, y: -0.13321638, z: 0.08941132, w: -0.020415185}
        tangentMode: 0
        weightedMode: 0
        inWeight: {x: 0.33333334, y: 0.33333334, z: 0.33333334, w: 0.33333334}
        outWeight: {x: 0.33333334, y: 0.33333334, z: 0.33333334, w: 0.33333334}
      - serializedVersion: 3
        time: 0.36666667
        value: {x: 0.13216798, y: -0.16521378, z: 0.07419195, w: 0.9745417}
        inSlope: {x: -0.00015601517, y: -0.14036001, z: 0.08184739, w: -0.029540064}
        outSlope: {x: -0.00015601517, y: -0.14036001, z: 0.08184739, w: -0.029540064}
        tangentMode: 0
        weightedMode: 0
        inWeight: {x: 0.33333334, y: 0.33333334, z: 0.33333334, w: 0.33333334}
        outWeight: {x: 0.33333334, y: 0.33333334, z: 0.33333334, w: 0.33333334}
      m_PreInfinity: 2
      m_PostInfinity: 2
      m_RotationOrder: 4
    path: Hips/Spine/Spine1/Spine2/LeftShoulder/LeftArm/LeftForeArm/LeftHand/LeftHandThumb1
  - curve:
      serializedVersion: 2
      m_Curve:
      - serializedVersion: 3
        time: 0
        value: {x: -0.40205967, y: -0.26536125, z: 0.11678507, w: 0.86850023}
        inSlope: {x: 1.3219409, y: 0.5601646, z: -0.9970953, w: 0.84486896}
        outSlope: {x: 1.3219409, y: 0.5601646, z: -0.9970953, w: 0.84486896}
        tangentMode: 0
        weightedMode: 0
        inWeight: {x: 0.33333334, y: 0.33333334, z: 0.33333334, w: 0.33333334}
        outWeight: {x: 0.33333334, y: 0.33333334, z: 0.33333334, w: 0.33333334}
      - serializedVersion: 3
        time: 0.10000001
        value: {x: -0.26298207, y: -0.21208969, z: 0.014908858, w: 0.9410825}
        inSlope: {x: 1.4760877, y: 0.53516376, z: -1.0128579, w: 0.54931635}
        outSlope: {x: 1.4760877, y: 0.53516376, z: -1.0128579, w: 0.54931635}
        tangentMode: 0
        weightedMode: 0
        inWeight: {x: 0.33333334, y: 0.33333334, z: 0.33333334, w: 0.33333334}
        outWeight: {x: 0.33333334, y: 0.33333334, z: 0.33333334, w: 0.33333334}
      - serializedVersion: 3
        time: 0.23333335
        value: {x: -0.05444911, y: -0.1421635, z: -0.11418597, w: 0.9817263}
        inSlope: {x: 1.6288375, y: 0.5422522, z: -0.8774749, w: 0.06551475}
        outSlope: {x: 1.6288375, y: 0.5422522, z: -0.8774749, w: 0.06551475}
        tangentMode: 0
        weightedMode: 0
        inWeight: {x: 0.33333334, y: 0.33333334, z: 0.33333334, w: 0.33333334}
        outWeight: {x: 0.33333334, y: 0.33333334, z: 0.33333334, w: 0.33333334}
      - serializedVersion: 3
        time: 0.33333334
        value: {x: 0.11448837, y: -0.10196727, z: -0.20807539, w: 0.9660226}
        inSlope: {x: 1.7109525, y: 0.352602, z: -0.88849765, w: -0.35516384}
        outSlope: {x: 1.7109525, y: 0.352602, z: -0.88849765, w: -0.35516384}
        tangentMode: 0
        weightedMode: 0
        inWeight: {x: 0.33333334, y: 0.33333334, z: 0.33333334, w: 0.33333334}
        outWeight: {x: 0.33333334, y: 0.33333334, z: 0.33333334, w: 0.33333334}
      - serializedVersion: 3
        time: 0.36666667
        value: {x: 0.17125763, y: -0.088507384, z: -0.23499899, w: 0.95268714}
        inSlope: {x: 1.7030779, y: 0.40379652, z: -0.80770797, w: -0.40006402}
        outSlope: {x: 1.7030779, y: 0.40379652, z: -0.80770797, w: -0.40006402}
        tangentMode: 0
        weightedMode: 0
        inWeight: {x: 0.33333334, y: 0.33333334, z: 0.33333334, w: 0.33333334}
        outWeight: {x: 0.33333334, y: 0.33333334, z: 0.33333334, w: 0.33333334}
      m_PreInfinity: 2
      m_PostInfinity: 2
      m_RotationOrder: 4
    path: Hips/Spine/Spine1/Spine2/LeftShoulder/LeftArm/LeftForeArm/LeftHand/LeftHandThumb1/LeftHandThumb2
  - curve:
      serializedVersion: 2
      m_Curve:
      - serializedVersion: 3
        time: 0
        value: {x: 0.34684196, y: -0.35118374, z: -0.54267037, w: 0.67961717}
        inSlope: {x: -0.21755038, y: 0.3867298, z: 0.8073663, w: 0.9142309}
        outSlope: {x: -0.21755038, y: 0.3867298, z: 0.8073663, w: 0.9142309}
        tangentMode: 0
        weightedMode: 0
        inWeight: {x: 0.33333334, y: 0.33333334, z: 0.33333334, w: 0.33333334}
        outWeight: {x: 0.33333334, y: 0.33333334, z: 0.33333334, w: 0.33333334}
      - serializedVersion: 3
        time: 0.20000002
        value: {x: 0.3060643, y: -0.27541676, z: -0.36514854, w: 0.83494717}
        inSlope: {x: -0.16714004, y: 0.3676928, z: 0.95797133, w: 0.6023052}
        outSlope: {x: -0.16714004, y: 0.3676928, z: 0.95797133, w: 0.6023052}
        tangentMode: 0
        weightedMode: 0
        inWeight: {x: 0.33333334, y: 0.33333334, z: 0.33333334, w: 0.33333334}
        outWeight: {x: 0.33333334, y: 0.33333334, z: 0.33333334, w: 0.33333334}
      - serializedVersion: 3
        time: 0.36666667
        value: {x: 0.2802454, y: -0.22030275, z: -0.19889271, w: 0.9128915}
        inSlope: {x: -0.13043405, y: 0.30237886, z: 1.0156261, w: 0.357433}
        outSlope: {x: -0.13043405, y: 0.30237886, z: 1.0156261, w: 0.357433}
        tangentMode: 0
        weightedMode: 0
        inWeight: {x: 0.33333334, y: 0.33333334, z: 0.33333334, w: 0.33333334}
        outWeight: {x: 0.33333334, y: 0.33333334, z: 0.33333334, w: 0.33333334}
      m_PreInfinity: 2
      m_PostInfinity: 2
      m_RotationOrder: 4
    path: Hips/Spine/Spine1/Spine2/LeftShoulder/LeftArm/LeftForeArm/LeftHand/LeftHandThumb1/LeftHandThumb2/LeftHandThumb3
  - curve:
      serializedVersion: 2
      m_Curve:
      - serializedVersion: 3
        time: 0
        value: {x: 0.045174714, y: -0.032839123, z: 0.8072617, w: 0.5875452}
        inSlope: {x: -0.10031081, y: 0.104349606, z: -0.14394699, w: 0.20890473}
        outSlope: {x: -0.10031081, y: 0.104349606, z: -0.14394699, w: 0.20890473}
        tangentMode: 0
        weightedMode: 0
        inWeight: {x: 0.33333334, y: 0.33333334, z: 0.33333334, w: 0.33333334}
        outWeight: {x: 0.33333334, y: 0.33333334, z: 0.33333334, w: 0.33333334}
      - serializedVersion: 3
        time: 0.36666667
        value: {x: 0.0118741635, y: 0.008255516, z: 0.74978304, w: 0.6615257}
        inSlope: {x: -0.08084723, y: 0.1196165, z: -0.16930284, w: 0.19404532}
        outSlope: {x: -0.08084723, y: 0.1196165, z: -0.16930284, w: 0.19404532}
        tangentMode: 0
        weightedMode: 0
        inWeight: {x: 0.33333334, y: 0.33333334, z: 0.33333334, w: 0.33333334}
        outWeight: {x: 0.33333334, y: 0.33333334, z: 0.33333334, w: 0.33333334}
      m_PreInfinity: 2
      m_PostInfinity: 2
      m_RotationOrder: 4
    path: Hips/Spine/Spine1/Spine2/LeftShoulder/LeftArm/LeftForeArm/LeftHand/LeftHandIndex1
  - curve:
      serializedVersion: 2
      m_Curve:
      - serializedVersion: 3
        time: 0
        value: {x: 0.016614646, y: 0.0018147998, z: 0.3391553, w: 0.940582}
        inSlope: {x: 0.0154322, y: -0.0046808003, z: 0.45548198, w: -0.16868769}
        outSlope: {x: 0.0154322, y: -0.0046808003, z: 0.45548198, w: -0.16868769}
        tangentMode: 0
        weightedMode: 0
        inWeight: {x: 0.33333334, y: 0.33333334, z: 0.33333334, w: 0.33333334}
        outWeight: {x: 0.33333334, y: 0.33333334, z: 0.33333334, w: 0.33333334}
      - serializedVersion: 3
        time: 0.36666667
        value: {x: 0.022722216, y: 0.0010377801, z: 0.5004031, w: 0.8654938}
        inSlope: {x: 0.017719457, y: 0.00054127193, z: 0.42230937, w: -0.24008097}
        outSlope: {x: 0.017719457, y: 0.00054127193, z: 0.42230937, w: -0.24008097}
        tangentMode: 0
        weightedMode: 0
        inWeight: {x: 0.33333334, y: 0.33333334, z: 0.33333334, w: 0.33333334}
        outWeight: {x: 0.33333334, y: 0.33333334, z: 0.33333334, w: 0.33333334}
      m_PreInfinity: 2
      m_PostInfinity: 2
      m_RotationOrder: 4
    path: Hips/Spine/Spine1/Spine2/LeftShoulder/LeftArm/LeftForeArm/LeftHand/LeftHandIndex1/LeftHandIndex2
  - curve:
      serializedVersion: 2
      m_Curve:
      - serializedVersion: 3
        time: 0
        value: {x: 0.0023907246, y: 0.0022937448, z: 0.3569276, w: 0.9341262}
        inSlope: {x: -0.00627479, y: -0.0069331327, z: -0.159097, w: 0.060304996}
        outSlope: {x: -0.00627479, y: -0.0069331327, z: -0.159097, w: 0.060304996}
        tangentMode: 0
        weightedMode: 0
        inWeight: {x: 0.33333334, y: 0.33333334, z: 0.33333334, w: 0.33333334}
        outWeight: {x: 0.33333334, y: 0.33333334, z: 0.33333334, w: 0.33333334}
      - serializedVersion: 3
        time: 0.36666667
        value: {x: -0.0000030622568, y: -0.000008938846, z: 0.29799226, w: 0.95456827}
        inSlope: {x: -0.0067652543, y: -0.005620718, z: -0.16230048, w: 0.051171187}
        outSlope: {x: -0.0067652543, y: -0.005620718, z: -0.16230048, w: 0.051171187}
        tangentMode: 0
        weightedMode: 0
        inWeight: {x: 0.33333334, y: 0.33333334, z: 0.33333334, w: 0.33333334}
        outWeight: {x: 0.33333334, y: 0.33333334, z: 0.33333334, w: 0.33333334}
      m_PreInfinity: 2
      m_PostInfinity: 2
      m_RotationOrder: 4
    path: Hips/Spine/Spine1/Spine2/LeftShoulder/LeftArm/LeftForeArm/LeftHand/LeftHandIndex1/LeftHandIndex2/LeftHandIndex3
  - curve:
      serializedVersion: 2
      m_Curve:
      - serializedVersion: 3
        time: 0
        value: {x: 0.038706798, y: 0.028966015, z: 0.8337287, w: 0.55005395}
        inSlope: {x: -0.15428087, y: -0.088076696, z: -0.008856654, w: 0.027937887}
        outSlope: {x: -0.15428087, y: -0.088076696, z: -0.008856654, w: 0.027937887}
        tangentMode: 0
        weightedMode: 0
        inWeight: {x: 0.33333334, y: 0.33333334, z: 0.33333334, w: 0.33333334}
        outWeight: {x: 0.33333334, y: 0.33333334, z: 0.33333334, w: 0.33333334}
      - serializedVersion: 3
        time: 0.36666667
        value: {x: -0.01028818, y: -0.01263671, z: 0.829494, w: 0.55827785}
        inSlope: {x: -0.11083513, y: -0.1369866, z: -0.0141745815, w: 0.016855003}
        outSlope: {x: -0.11083513, y: -0.1369866, z: -0.0141745815, w: 0.016855003}
        tangentMode: 0
        weightedMode: 0
        inWeight: {x: 0.33333334, y: 0.33333334, z: 0.33333334, w: 0.33333334}
        outWeight: {x: 0.33333334, y: 0.33333334, z: 0.33333334, w: 0.33333334}
      m_PreInfinity: 2
      m_PostInfinity: 2
      m_RotationOrder: 4
    path: Hips/Spine/Spine1/Spine2/LeftShoulder/LeftArm/LeftForeArm/LeftHand/LeftHandMiddle1
  - curve:
      serializedVersion: 2
      m_Curve:
      - serializedVersion: 3
        time: 0
        value: {x: -0.000018649884, y: 0.00000008507333, z: 0.36993426, w: 0.92905796}
        inSlope: {x: 0.15763092, y: 0.04165191, z: -0.10944127, w: 0.042854544}
        outSlope: {x: 0.15763092, y: 0.04165191, z: -0.10944127, w: 0.042854544}
        tangentMode: 0
        weightedMode: 0
        inWeight: {x: 0.33333334, y: 0.33333334, z: 0.33333334, w: 0.33333334}
        outWeight: {x: 0.33333334, y: 0.33333334, z: 0.33333334, w: 0.33333334}
      - serializedVersion: 3
        time: 0.36666667
        value: {x: 0.058286097, y: 0.0130536305, z: 0.32931384, w: 0.9423294}
        inSlope: {x: 0.1602211, y: 0.029516622, z: -0.11191786, w: 0.029497148}
        outSlope: {x: 0.1602211, y: 0.029516622, z: -0.11191786, w: 0.029497148}
        tangentMode: 0
        weightedMode: 0
        inWeight: {x: 0.33333334, y: 0.33333334, z: 0.33333334, w: 0.33333334}
        outWeight: {x: 0.33333334, y: 0.33333334, z: 0.33333334, w: 0.33333334}
      m_PreInfinity: 2
      m_PostInfinity: 2
      m_RotationOrder: 4
    path: Hips/Spine/Spine1/Spine2/LeftShoulder/LeftArm/LeftForeArm/LeftHand/LeftHandMiddle1/LeftHandMiddle2
  - curve:
      serializedVersion: 2
      m_Curve:
      - serializedVersion: 3
        time: 0
        value: {x: 0.000019144512, y: 0.0000020887674, z: 0.390338, w: 0.92067164}
        inSlope: {x: -0.000038951563, y: 0.000015935608, z: -0.27650177, w: 0.1156032}
        outSlope: {x: -0.000038951563, y: 0.000015935608, z: -0.27650177, w: 0.1156032}
        tangentMode: 0
        weightedMode: 0
        inWeight: {x: 0.33333334, y: 0.33333334, z: 0.33333334, w: 0.33333334}
        outWeight: {x: 0.33333334, y: 0.33333334, z: 0.33333334, w: 0.33333334}
      - serializedVersion: 3
        time: 0.36666667
        value: {x: 0.000027933344, y: 0.000010430444, z: 0.28701553, w: 0.9579259}
        inSlope: {x: 0.000082437335, y: 0.000016933302, z: -0.2866504, w: 0.087447174}
        outSlope: {x: 0.000082437335, y: 0.000016933302, z: -0.2866504, w: 0.087447174}
        tangentMode: 0
        weightedMode: 0
        inWeight: {x: 0.33333334, y: 0.33333334, z: 0.33333334, w: 0.33333334}
        outWeight: {x: 0.33333334, y: 0.33333334, z: 0.33333334, w: 0.33333334}
      m_PreInfinity: 2
      m_PostInfinity: 2
      m_RotationOrder: 4
    path: Hips/Spine/Spine1/Spine2/LeftShoulder/LeftArm/LeftForeArm/LeftHand/LeftHandMiddle1/LeftHandMiddle2/LeftHandMiddle3
  - curve:
      serializedVersion: 2
      m_Curve:
      - serializedVersion: 3
        time: 0
        value: {x: -0.0098175155, y: 0.022865986, z: 0.7243246, w: 0.6890099}
        inSlope: {x: -0.23400857, y: -0.05188571, z: 0.263021, w: -0.2831161}
        outSlope: {x: -0.23400857, y: -0.05188571, z: 0.263021, w: -0.2831161}
        tangentMode: 0
        weightedMode: 0
        inWeight: {x: 0.33333334, y: 0.33333334, z: 0.33333334, w: 0.33333334}
        outWeight: {x: 0.33333334, y: 0.33333334, z: 0.33333334, w: 0.33333334}
      - serializedVersion: 3
        time: 0.36666667
        value: {x: -0.08942683, y: -0.01737373, z: 0.81395817, w: 0.5737361}
        inSlope: {x: -0.1935062, y: -0.16541058, z: 0.22344412, w: -0.34537378}
        outSlope: {x: -0.1935062, y: -0.16541058, z: 0.22344412, w: -0.34537378}
        tangentMode: 0
        weightedMode: 0
        inWeight: {x: 0.33333334, y: 0.33333334, z: 0.33333334, w: 0.33333334}
        outWeight: {x: 0.33333334, y: 0.33333334, z: 0.33333334, w: 0.33333334}
      m_PreInfinity: 2
      m_PostInfinity: 2
      m_RotationOrder: 4
    path: Hips/Spine/Spine1/Spine2/LeftShoulder/LeftArm/LeftForeArm/LeftHand/LeftHandRing1
  - curve:
      serializedVersion: 2
      m_Curve:
      - serializedVersion: 3
        time: 0
        value: {x: -0.00918464, y: 0.0036870996, z: 0.48548362, w: 0.87418973}
        inSlope: {x: 0.06390622, y: -0.012613458, z: -0.44976708, w: 0.24541853}
        outSlope: {x: 0.06390622, y: -0.012613458, z: -0.44976708, w: 0.24541853}
        tangentMode: 0
        weightedMode: 0
        inWeight: {x: 0.33333334, y: 0.33333334, z: 0.33333334, w: 0.33333334}
        outWeight: {x: 0.33333334, y: 0.33333334, z: 0.33333334, w: 0.33333334}
      - serializedVersion: 3
        time: 0.36666667
        value: {x: 0.012872225, y: -0.005473294, z: 0.31369916, w: 0.94941944}
        inSlope: {x: 0.055090312, y: -0.036943354, z: -0.48508736, w: 0.16399921}
        outSlope: {x: 0.055090312, y: -0.036943354, z: -0.48508736, w: 0.16399921}
        tangentMode: 0
        weightedMode: 0
        inWeight: {x: 0.33333334, y: 0.33333334, z: 0.33333334, w: 0.33333334}
        outWeight: {x: 0.33333334, y: 0.33333334, z: 0.33333334, w: 0.33333334}
      m_PreInfinity: 2
      m_PostInfinity: 2
      m_RotationOrder: 4
    path: Hips/Spine/Spine1/Spine2/LeftShoulder/LeftArm/LeftForeArm/LeftHand/LeftHandRing1/LeftHandRing2
  - curve:
      serializedVersion: 2
      m_Curve:
      - serializedVersion: 3
        time: 0
        value: {x: 0.000013478546, y: -0.000006745702, z: 0.5078351, w: 0.8614543}
        inSlope: {x: 0.000016876711, y: 0.00021314419, z: -0.5074176, w: 0.2924913}
        outSlope: {x: 0.000016876711, y: 0.00021314419, z: -0.5074176, w: 0.2924913}
        tangentMode: 0
        weightedMode: 0
        inWeight: {x: 0.33333334, y: 0.33333334, z: 0.33333334, w: 0.33333334}
        outWeight: {x: 0.33333334, y: 0.33333334, z: 0.33333334, w: 0.33333334}
      - serializedVersion: 3
        time: 0.36666667
        value: {x: 0.000008748268, y: -0.000010099623, z: 0.3125852, w: 0.9498897}
        inSlope: {x: -0.00009484293, y: -0.00021259268, z: -0.55451816, w: 0.18849494}
        outSlope: {x: -0.00009484293, y: -0.00021259268, z: -0.55451816, w: 0.18849494}
        tangentMode: 0
        weightedMode: 0
        inWeight: {x: 0.33333334, y: 0.33333334, z: 0.33333334, w: 0.33333334}
        outWeight: {x: 0.33333334, y: 0.33333334, z: 0.33333334, w: 0.33333334}
      m_PreInfinity: 2
      m_PostInfinity: 2
      m_RotationOrder: 4
    path: Hips/Spine/Spine1/Spine2/LeftShoulder/LeftArm/LeftForeArm/LeftHand/LeftHandRing1/LeftHandRing2/LeftHandRing3
  - curve:
      serializedVersion: 2
      m_Curve:
      - serializedVersion: 3
        time: 0
        value: {x: -0.046372328, y: 0.004091079, z: 0.67838615, w: 0.7332292}
        inSlope: {x: -0.3114087, y: -0.058716647, z: 0.16698359, w: -0.17749248}
        outSlope: {x: -0.3114087, y: -0.058716647, z: 0.16698359, w: -0.17749248}
        tangentMode: 0
        weightedMode: 0
        inWeight: {x: 0.33333334, y: 0.33333334, z: 0.33333334, w: 0.33333334}
        outWeight: {x: 0.33333334, y: 0.33333334, z: 0.33333334, w: 0.33333334}
      - serializedVersion: 3
        time: 0.36666667
        value: {x: -0.15220901, y: -0.045592956, z: 0.73569226, w: 0.6584152}
        inSlope: {x: -0.2566074, y: -0.20933893, z: 0.14407577, w: -0.23016037}
        outSlope: {x: -0.2566074, y: -0.20933893, z: 0.14407577, w: -0.23016037}
        tangentMode: 0
        weightedMode: 0
        inWeight: {x: 0.33333334, y: 0.33333334, z: 0.33333334, w: 0.33333334}
        outWeight: {x: 0.33333334, y: 0.33333334, z: 0.33333334, w: 0.33333334}
      m_PreInfinity: 2
      m_PostInfinity: 2
      m_RotationOrder: 4
    path: Hips/Spine/Spine1/Spine2/LeftShoulder/LeftArm/LeftForeArm/LeftHand/LeftHandPinky1
  - curve:
      serializedVersion: 2
      m_Curve:
      - serializedVersion: 3
        time: 0
        value: {x: 0.00004399815, y: 0.0000038669955, z: 0.62043786, w: 0.7842557}
        inSlope: {x: 0.0000073026235, y: 0.000036185862, z: -0.1849079, w: 0.1451075}
        outSlope: {x: 0.0000073026235, y: 0.000036185862, z: -0.1849079, w: 0.1451075}
        tangentMode: 0
        weightedMode: 0
        inWeight: {x: 0.33333334, y: 0.33333334, z: 0.33333334, w: 0.33333334}
        outWeight: {x: 0.33333334, y: 0.33333334, z: 0.33333334, w: 0.33333334}
      - serializedVersion: 3
        time: 0.36666667
        value: {x: 0.000038663024, y: 0.0000033854753, z: 0.550628, w: 0.8347508}
        inSlope: {x: -0.000038491602, y: -0.000039239872, z: -0.19569041, w: 0.13018729}
        outSlope: {x: -0.000038491602, y: -0.000039239872, z: -0.19569041, w: 0.13018729}
        tangentMode: 0
        weightedMode: 0
        inWeight: {x: 0.33333334, y: 0.33333334, z: 0.33333334, w: 0.33333334}
        outWeight: {x: 0.33333334, y: 0.33333334, z: 0.33333334, w: 0.33333334}
      m_PreInfinity: 2
      m_PostInfinity: 2
      m_RotationOrder: 4
    path: Hips/Spine/Spine1/Spine2/LeftShoulder/LeftArm/LeftForeArm/LeftHand/LeftHandPinky1/LeftHandPinky2
  - curve:
      serializedVersion: 2
      m_Curve:
      - serializedVersion: 3
        time: 0
        value: {x: -0.000018547456, y: -0.0000000461076, z: 0.43991807, w: 0.8980379}
        inSlope: {x: -0.041731138, y: -0.015952779, z: -0.5771514, w: 0.27510166}
        outSlope: {x: -0.041731138, y: -0.015952779, z: -0.5771514, w: 0.27510166}
        tangentMode: 0
        weightedMode: 0
        inWeight: {x: 0.33333334, y: 0.33333334, z: 0.33333334, w: 0.33333334}
        outWeight: {x: 0.33333334, y: 0.33333334, z: 0.33333334, w: 0.33333334}
      - serializedVersion: 3
        time: 0.36666667
        value: {x: -0.016269647, y: -0.0026421784, z: 0.21926166, w: 0.97552687}
        inSlope: {x: -0.046187196, y: 0.0017983863, z: -0.6222189, w: 0.14610173}
        outSlope: {x: -0.046187196, y: 0.0017983863, z: -0.6222189, w: 0.14610173}
        tangentMode: 0
        weightedMode: 0
        inWeight: {x: 0.33333334, y: 0.33333334, z: 0.33333334, w: 0.33333334}
        outWeight: {x: 0.33333334, y: 0.33333334, z: 0.33333334, w: 0.33333334}
      m_PreInfinity: 2
      m_PostInfinity: 2
      m_RotationOrder: 4
    path: Hips/Spine/Spine1/Spine2/LeftShoulder/LeftArm/LeftForeArm/LeftHand/LeftHandPinky1/LeftHandPinky2/LeftHandPinky3
  - curve:
      serializedVersion: 2
      m_Curve:
      - serializedVersion: 3
        time: 0
        value: {x: -0.7925776, y: -0.17178798, z: -0.29990605, w: 0.50236034}
        inSlope: {x: 0.63463205, y: -0.06475344, z: -0.528574, w: 0.62772804}
        outSlope: {x: 0.63463205, y: -0.06475344, z: -0.528574, w: 0.62772804}
        tangentMode: 0
        weightedMode: 0
        inWeight: {x: 0.33333334, y: 0.33333334, z: 0.33333334, w: 0.33333334}
        outWeight: {x: 0.33333334, y: 0.33333334, z: 0.33333334, w: 0.33333334}
      - serializedVersion: 3
        time: 0.16666667
        value: {x: -0.67247736, y: -0.14797972, z: -0.39918634, w: 0.6054144}
        inSlope: {x: 0.7381769, y: 0.29646653, z: -0.48334342, w: 0.5761759}
        outSlope: {x: 0.7381769, y: 0.29646653, z: -0.48334342, w: 0.5761759}
        tangentMode: 0
        weightedMode: 0
        inWeight: {x: 0.33333334, y: 0.33333334, z: 0.33333334, w: 0.33333334}
        outWeight: {x: 0.33333334, y: 0.33333334, z: 0.33333334, w: 0.33333334}
      - serializedVersion: 3
        time: 0.3
        value: {x: -0.5953024, y: -0.12149552, z: -0.4378997, w: 0.6626446}
        inSlope: {x: 0.5179212, y: 0.13521609, z: -0.23755075, w: 0.33360425}
        outSlope: {x: 0.5179212, y: 0.13521609, z: -0.23755075, w: 0.33360425}
        tangentMode: 0
        weightedMode: 0
        inWeight: {x: 0.33333334, y: 0.33333334, z: 0.33333334, w: 0.33333334}
        outWeight: {x: 0.33333334, y: 0.33333334, z: 0.33333334, w: 0.33333334}
      - serializedVersion: 3
        time: 0.36666667
        value: {x: -0.56970316, y: -0.11156832, z: -0.4448486, w: 0.6819828}
        inSlope: {x: 0.25635305, y: 0.16761863, z: 0.021647217, w: 0.25963786}
        outSlope: {x: 0.25635305, y: 0.16761863, z: 0.021647217, w: 0.25963786}
        tangentMode: 0
        weightedMode: 0
        inWeight: {x: 0.33333334, y: 0.33333334, z: 0.33333334, w: 0.33333334}
        outWeight: {x: 0.33333334, y: 0.33333334, z: 0.33333334, w: 0.33333334}
      m_PreInfinity: 2
      m_PostInfinity: 2
      m_RotationOrder: 4
    path: Hips/LeftUpLeg
  - curve:
      serializedVersion: 2
      m_Curve:
      - serializedVersion: 3
        time: 0
        value: {x: 0.6802776, y: 0.023303492, z: 0.04654828, w: 0.7311037}
        inSlope: {x: -0.18518864, y: -0.06465599, z: -0.13736375, w: 0.18106519}
        outSlope: {x: -0.18518864, y: -0.06465599, z: -0.13736375, w: 0.18106519}
        tangentMode: 0
        weightedMode: 0
        inWeight: {x: 0.33333334, y: 0.33333334, z: 0.33333334, w: 0.33333334}
        outWeight: {x: 0.33333334, y: 0.33333334, z: 0.33333334, w: 0.33333334}
      - serializedVersion: 3
        time: 0.16666667
        value: {x: 0.65315974, y: 0.0038044201, z: -0.016036877, w: 0.75704074}
        inSlope: {x: -0.11887549, y: -0.12824704, z: -0.5329121, w: 0.0925201}
        outSlope: {x: -0.11887549, y: -0.12824704, z: -0.5329121, w: 0.0925201}
        tangentMode: 0
        weightedMode: 0
        inWeight: {x: 0.33333334, y: 0.33333334, z: 0.33333334, w: 0.33333334}
        outWeight: {x: 0.33333334, y: 0.33333334, z: 0.33333334, w: 0.33333334}
      - serializedVersion: 3
        time: 0.23333335
        value: {x: 0.6382391, y: 0.002326661, z: -0.039755326, w: 0.7688076}
        inSlope: {x: -0.36506566, y: 0.07739279, z: -0.16583458, w: 0.2939299}
        outSlope: {x: -0.36506566, y: 0.07739279, z: -0.16583458, w: 0.2939299}
        tangentMode: 0
        weightedMode: 0
        inWeight: {x: 0.33333334, y: 0.33333334, z: 0.33333334, w: 0.33333334}
        outWeight: {x: 0.33333334, y: 0.33333334, z: 0.33333334, w: 0.33333334}
      - serializedVersion: 3
        time: 0.36666667
        value: {x: 0.5846098, y: 0.0074519482, z: -0.0621187, w: 0.8088987}
        inSlope: {x: -0.41521314, y: -0.106382966, z: -0.26133904, w: 0.28789404}
        outSlope: {x: -0.41521314, y: -0.106382966, z: -0.26133904, w: 0.28789404}
        tangentMode: 0
        weightedMode: 0
        inWeight: {x: 0.33333334, y: 0.33333334, z: 0.33333334, w: 0.33333334}
        outWeight: {x: 0.33333334, y: 0.33333334, z: 0.33333334, w: 0.33333334}
      m_PreInfinity: 2
      m_PostInfinity: 2
      m_RotationOrder: 4
    path: Hips/LeftUpLeg/LeftLeg
  - curve:
      serializedVersion: 2
      m_Curve:
      - serializedVersion: 3
        time: 0
        value: {x: 0.14249724, y: -0.0050573875, z: 0.080891885, w: 0.98647124}
        inSlope: {x: -0.07128015, y: -0.057680205, z: 0.48283538, w: -0.03369212}
        outSlope: {x: -0.07128015, y: -0.057680205, z: 0.48283538, w: -0.03369212}
        tangentMode: 0
        weightedMode: 0
        inWeight: {x: 0.33333334, y: 0.33333334, z: 0.33333334, w: 0.33333334}
        outWeight: {x: 0.33333334, y: 0.33333334, z: 0.33333334, w: 0.33333334}
      - serializedVersion: 3
        time: 0.10000001
        value: {x: 0.1323556, y: -0.012526679, z: 0.14604016, w: 0.9803047}
        inSlope: {x: -0.10345816, y: -0.09759654, z: 0.90665424, w: -0.12238383}
        outSlope: {x: -0.10345816, y: -0.09759654, z: 0.90665424, w: -0.12238383}
        tangentMode: 0
        weightedMode: 0
        inWeight: {x: 0.33333334, y: 0.33333334, z: 0.33333334, w: 0.33333334}
        outWeight: {x: 0.33333334, y: 0.33333334, z: 0.33333334, w: 0.33333334}
      - serializedVersion: 3
        time: 0.23333335
        value: {x: 0.1341292, y: -0.02126359, z: 0.25063744, w: 0.95850825}
        inSlope: {x: 0.21856026, y: -0.0015160351, z: 0.4694036, w: -0.15309335}
        outSlope: {x: 0.21856026, y: -0.0015160351, z: 0.4694036, w: -0.15309335}
        tangentMode: 0
        weightedMode: 0
        inWeight: {x: 0.33333334, y: 0.33333334, z: 0.33333334, w: 0.33333334}
        outWeight: {x: 0.33333334, y: 0.33333334, z: 0.33333334, w: 0.33333334}
      - serializedVersion: 3
        time: 0.36666667
        value: {x: 0.16842736, y: -0.018085098, z: 0.3008591, w: 0.9385036}
        inSlope: {x: 0.2980234, y: 0.047347922, z: 0.2459854, w: -0.12844206}
        outSlope: {x: 0.2980234, y: 0.047347922, z: 0.2459854, w: -0.12844206}
        tangentMode: 0
        weightedMode: 0
        inWeight: {x: 0.33333334, y: 0.33333334, z: 0.33333334, w: 0.33333334}
        outWeight: {x: 0.33333334, y: 0.33333334, z: 0.33333334, w: 0.33333334}
      m_PreInfinity: 2
      m_PostInfinity: 2
      m_RotationOrder: 4
    path: Hips/LeftUpLeg/LeftLeg/LeftFoot
  - curve:
      serializedVersion: 2
      m_Curve:
      - serializedVersion: 3
        time: 0
        value: {x: -0.0026470216, y: 0.025067702, z: -0.016089419, w: 0.9995528}
        inSlope: {x: -0.056812752, y: 0.043662168, z: 0.02766771, w: -0.00089943403}
        outSlope: {x: -0.056812752, y: 0.043662168, z: 0.02766771, w: -0.00089943403}
        tangentMode: 0
        weightedMode: 0
        inWeight: {x: 0.33333334, y: 0.33333334, z: 0.33333334, w: 0.33333334}
        outWeight: {x: 0.33333334, y: 0.33333334, z: 0.33333334, w: 0.33333334}
      - serializedVersion: 3
        time: 0.20000002
        value: {x: -0.0027286925, y: 0.015192445, z: -0.009096574, w: 0.9998395}
        inSlope: {x: 0.031693287, y: -0.11818936, z: 0.022131069, w: 0.0022950764}
        outSlope: {x: 0.031693287, y: -0.11818936, z: 0.022131069, w: 0.0022950764}
        tangentMode: 0
        weightedMode: 0
        inWeight: {x: 0.33333334, y: 0.33333334, z: 0.33333334, w: 0.33333334}
        outWeight: {x: 0.33333334, y: 0.33333334, z: 0.33333334, w: 0.33333334}
      - serializedVersion: 3
        time: 0.36666667
        value: {x: -0.005694098, y: 0.010837131, z: -0.0027171737, w: 0.9999214}
        inSlope: {x: 0.001727217, y: 0.08723237, z: -0.0073416675, w: -0.0008279086}
        outSlope: {x: 0.001727217, y: 0.08723237, z: -0.0073416675, w: -0.0008279086}
        tangentMode: 0
        weightedMode: 0
        inWeight: {x: 0.33333334, y: 0.33333334, z: 0.33333334, w: 0.33333334}
        outWeight: {x: 0.33333334, y: 0.33333334, z: 0.33333334, w: 0.33333334}
      m_PreInfinity: 2
      m_PostInfinity: 2
      m_RotationOrder: 4
    path: Hips/LeftUpLeg/LeftLeg/LeftFoot/LeftToeBase
  - curve:
      serializedVersion: 2
      m_Curve:
      - serializedVersion: 3
        time: 0
        value: {x: -0.7214677, y: 0.3012986, z: 0.18852317, w: 0.5942749}
        inSlope: {x: 0.17775355, y: -0.77981824, z: -0.26959956, w: 0.66433483}
        outSlope: {x: 0.17775355, y: -0.77981824, z: -0.26959956, w: 0.66433483}
        tangentMode: 0
        weightedMode: 0
        inWeight: {x: 0.33333334, y: 0.33333334, z: 0.33333334, w: 0.33333334}
        outWeight: {x: 0.33333334, y: 0.33333334, z: 0.33333334, w: 0.33333334}
      - serializedVersion: 3
        time: 0.10000001
        value: {x: -0.70260787, y: 0.22342171, z: 0.15599757, w: 0.6573353}
        inSlope: {x: 0.08005677, y: -0.5949528, z: -0.54683495, w: 0.42151988}
        outSlope: {x: 0.08005677, y: -0.5949528, z: -0.54683495, w: 0.42151988}
        tangentMode: 0
        weightedMode: 0
        inWeight: {x: 0.33333334, y: 0.33333334, z: 0.33333334, w: 0.33333334}
        outWeight: {x: 0.33333334, y: 0.33333334, z: 0.33333334, w: 0.33333334}
      - serializedVersion: 3
        time: 0.20000002
        value: {x: -0.6963904, y: 0.19522165, z: 0.09108038, w: 0.684568}
        inSlope: {x: 0.13136384, y: -0.019495849, z: -0.525047, w: 0.21138397}
        outSlope: {x: 0.13136384, y: -0.019495849, z: -0.525047, w: 0.21138397}
        tangentMode: 0
        weightedMode: 0
        inWeight: {x: 0.33333334, y: 0.33333334, z: 0.33333334, w: 0.33333334}
        outWeight: {x: 0.33333334, y: 0.33333334, z: 0.33333334, w: 0.33333334}
      - serializedVersion: 3
        time: 0.36666667
        value: {x: -0.68599856, y: 0.19529863, z: 0.020119518, w: 0.7006138}
        inSlope: {x: -0.11164606, y: -0.102113046, z: -0.37615973, w: -0.06603599}
        outSlope: {x: -0.11164606, y: -0.102113046, z: -0.37615973, w: -0.06603599}
        tangentMode: 0
        weightedMode: 0
        inWeight: {x: 0.33333334, y: 0.33333334, z: 0.33333334, w: 0.33333334}
        outWeight: {x: 0.33333334, y: 0.33333334, z: 0.33333334, w: 0.33333334}
      m_PreInfinity: 2
      m_PostInfinity: 2
      m_RotationOrder: 4
    path: Hips/RightUpLeg
  - curve:
      serializedVersion: 2
      m_Curve:
      - serializedVersion: 3
        time: 0
        value: {x: 0.91507, y: -0.026915098, z: -0.021166252, w: 0.40183887}
        inSlope: {x: -0.048145648, y: -0.029379072, z: -0.34161332, w: 0.084410004}
        outSlope: {x: -0.048145648, y: -0.029379072, z: -0.34161332, w: 0.084410004}
        tangentMode: 0
        weightedMode: 0
        inWeight: {x: 0.33333334, y: 0.33333334, z: 0.33333334, w: 0.33333334}
        outWeight: {x: 0.33333334, y: 0.33333334, z: 0.33333334, w: 0.33333334}
      - serializedVersion: 3
        time: 0.10000001
        value: {x: 0.9078629, y: -0.035188213, z: -0.063256785, w: 0.4129713}
        inSlope: {x: -0.06883799, y: -0.040128075, z: -0.11680469, w: 0.13272999}
        outSlope: {x: -0.06883799, y: -0.040128075, z: -0.11680469, w: 0.13272999}
        tangentMode: 0
        weightedMode: 0
        inWeight: {x: 0.33333334, y: 0.33333334, z: 0.33333334, w: 0.33333334}
        outWeight: {x: 0.33333334, y: 0.33333334, z: 0.33333334, w: 0.33333334}
      - serializedVersion: 3
        time: 0.23333335
        value: {x: 0.9075577, y: -0.031438734, z: -0.030905187, w: 0.4176069}
        inSlope: {x: 0.034753386, y: 0.05713801, z: 0.2740411, w: -0.05088911}
        outSlope: {x: 0.034753386, y: 0.05713801, z: 0.2740411, w: -0.05088911}
        tangentMode: 0
        weightedMode: 0
        inWeight: {x: 0.33333334, y: 0.33333334, z: 0.33333334, w: 0.33333334}
        outWeight: {x: 0.33333334, y: 0.33333334, z: 0.33333334, w: 0.33333334}
      - serializedVersion: 3
        time: 0.36666667
        value: {x: 0.9102737, y: -0.0213644, z: 0.007966401, w: 0.4133787}
        inSlope: {x: -0.010743142, y: 0.106761985, z: 0.34400874, w: 0.02780825}
        outSlope: {x: -0.010743142, y: 0.106761985, z: 0.34400874, w: 0.02780825}
        tangentMode: 0
        weightedMode: 0
        inWeight: {x: 0.33333334, y: 0.33333334, z: 0.33333334, w: 0.33333334}
        outWeight: {x: 0.33333334, y: 0.33333334, z: 0.33333334, w: 0.33333334}
      m_PreInfinity: 2
      m_PostInfinity: 2
      m_RotationOrder: 4
    path: Hips/RightUpLeg/RightLeg
  - curve:
      serializedVersion: 2
      m_Curve:
      - serializedVersion: 3
        time: 0
        value: {x: -0.12440619, y: 0.0004877162, z: 0.026695915, w: 0.9918721}
        inSlope: {x: -0.35425943, y: 0.01126941, z: 0.09292831, w: -0.049236413}
        outSlope: {x: -0.35425943, y: 0.01126941, z: 0.09292831, w: -0.049236413}
        tangentMode: 0
        weightedMode: 0
        inWeight: {x: 0.33333334, y: 0.33333334, z: 0.33333334, w: 0.33333334}
        outWeight: {x: 0.33333334, y: 0.33333334, z: 0.33333334, w: 0.33333334}
      - serializedVersion: 3
        time: 0.13333334
        value: {x: -0.14742148, y: 0.0013945134, z: 0.054688394, w: 0.98755974}
        inSlope: {x: 0.0699585, y: 0.0028962272, z: 0.26291087, w: -0.0041940813}
        outSlope: {x: 0.0699585, y: 0.0028962272, z: 0.26291087, w: -0.0041940813}
        tangentMode: 0
        weightedMode: 0
        inWeight: {x: 0.33333334, y: 0.33333334, z: 0.33333334, w: 0.33333334}
        outWeight: {x: 0.33333334, y: 0.33333334, z: 0.33333334, w: 0.33333334}
      - serializedVersion: 3
        time: 0.36666667
        value: {x: -0.15221371, y: 0.0023090555, z: 0.107936695, w: 0.9824334}
        inSlope: {x: 0.09027959, y: 0.028313728, z: -0.011996851, w: 0.015397669}
        outSlope: {x: 0.09027959, y: 0.028313728, z: -0.011996851, w: 0.015397669}
        tangentMode: 0
        weightedMode: 0
        inWeight: {x: 0.33333334, y: 0.33333334, z: 0.33333334, w: 0.33333334}
        outWeight: {x: 0.33333334, y: 0.33333334, z: 0.33333334, w: 0.33333334}
      m_PreInfinity: 2
      m_PostInfinity: 2
      m_RotationOrder: 4
    path: Hips/RightUpLeg/RightLeg/RightFoot
  - curve:
      serializedVersion: 2
      m_Curve:
      - serializedVersion: 3
        time: 0
        value: {x: -0.2628856, y: -0.02992065, z: 0.01029286, w: 0.964308}
        inSlope: {x: 0.3174555, y: -0.28489053, z: 0.26479274, w: 0.0704366}
        outSlope: {x: 0.3174555, y: -0.28489053, z: 0.26479274, w: 0.0704366}
        tangentMode: 0
        weightedMode: 0
        inWeight: {x: 0.33333334, y: 0.33333334, z: 0.33333334, w: 0.33333334}
        outWeight: {x: 0.33333334, y: 0.33333334, z: 0.33333334, w: 0.33333334}
      - serializedVersion: 3
        time: 0.13333334
        value: {x: -0.23824549, y: -0.05177442, z: 0.029798593, w: 0.9693661}
        inSlope: {x: -0.0138156125, y: -0.022154937, z: -0.06474507, w: -0.0025954845}
        outSlope: {x: -0.0138156125, y: -0.022154937, z: -0.06474507, w: -0.0025954845}
        tangentMode: 0
        weightedMode: 0
        inWeight: {x: 0.33333334, y: 0.33333334, z: 0.33333334, w: 0.33333334}
        outWeight: {x: 0.33333334, y: 0.33333334, z: 0.33333334, w: 0.33333334}
      - serializedVersion: 3
        time: 0.36666667
        value: {x: -0.23823136, y: -0.051499076, z: 0.029809348, w: 0.9693839}
        inSlope: {x: -0.00024139883, y: -0.00080768025, z: -0.0023186582, w: -0.00003039837}
        outSlope: {x: -0.00024139883, y: -0.00080768025, z: -0.0023186582, w: -0.00003039837}
        tangentMode: 0
        weightedMode: 0
        inWeight: {x: 0.33333334, y: 0.33333334, z: 0.33333334, w: 0.33333334}
        outWeight: {x: 0.33333334, y: 0.33333334, z: 0.33333334, w: 0.33333334}
      m_PreInfinity: 2
      m_PostInfinity: 2
      m_RotationOrder: 4
    path: Hips/RightUpLeg/RightLeg/RightFoot/RightToeBase
  m_CompressedRotationCurves: []
  m_EulerCurves: []
  m_PositionCurves:
  - curve:
      serializedVersion: 2
      m_Curve:
      - serializedVersion: 3
        time: 0
        value: {x: 0.000000035762785, y: 0.49377853, z: 0.00000024080276}
        inSlope: {x: 0.10146782, y: 0.19367748, z: -0.22432096}
        outSlope: {x: 0.10146782, y: 0.19367748, z: -0.22432096}
        tangentMode: 0
        weightedMode: 0
        inWeight: {x: 0.33333334, y: 0.33333334, z: 0.33333334}
        outWeight: {x: 0.33333334, y: 0.33333334, z: 0.33333334}
      - serializedVersion: 3
        time: 0.033333335
        value: {x: 0.0033822965, y: 0.5002344, z: -0.0074771247}
        inSlope: {x: 0.11241361, y: 0.20669106, z: -0.22555579}
        outSlope: {x: 0.11241375, y: 0.20669284, z: -0.22555582}
        tangentMode: 0
        weightedMode: 0
        inWeight: {x: 0.33333334, y: 0.33333334, z: 0.33333334}
        outWeight: {x: 0.33333334, y: 0.33333334, z: 0.33333334}
      - serializedVersion: 3
        time: 0.06666667
        value: {x: 0.007494279, y: 0.5075581, z: -0.015036815}
        inSlope: {x: 0.12177547, y: 0.21743394, z: -0.22522567}
        outSlope: {x: 0.121775374, y: 0.21743467, z: -0.22522603}
        tangentMode: 0
        weightedMode: 0
        inWeight: {x: 0.33333334, y: 0.33333334, z: 0.33333334}
        outWeight: {x: 0.33333334, y: 0.33333334, z: 0.33333334}
      - serializedVersion: 3
        time: 0.13333334
        value: {x: 0.015650487, y: 0.5189421, z: -0.029356685}
        inSlope: {x: 0.12529016, y: 0.10870712, z: -0.2026293}
        outSlope: {x: 0.12529024, y: 0.10869919, z: -0.20262994}
        tangentMode: 0
        weightedMode: 0
        inWeight: {x: 0.33333334, y: 0.33333334, z: 0.33333334}
        outWeight: {x: 0.33333334, y: 0.33333334, z: 0.33333334}
      - serializedVersion: 3
        time: 0.16666667
        value: {x: 0.01983158, y: 0.5220142, z: -0.03608066}
        inSlope: {x: 0.12524919, y: 0.07618162, z: -0.20200834}
        outSlope: {x: 0.12524976, y: 0.0761819, z: -0.20200773}
        tangentMode: 0
        weightedMode: 0
        inWeight: {x: 0.33333334, y: 0.33333334, z: 0.33333334}
        outWeight: {x: 0.33333334, y: 0.33333334, z: 0.33333334}
      - serializedVersion: 3
        time: 0.2
        value: {x: 0.02402558, y: 0.5223485, z: -0.042692926}
        inSlope: {x: 0.0838901, y: -0.03054243, z: -0.214164}
        outSlope: {x: 0.0838901, y: -0.030546281, z: -0.21416391}
        tangentMode: 0
        weightedMode: 0
        inWeight: {x: 0.33333334, y: 0.33333334, z: 0.33333334}
        outWeight: {x: 0.33333334, y: 0.33333334, z: 0.33333334}
      - serializedVersion: 3
        time: 0.33333334
        value: {x: 0.03381321, y: 0.51692384, z: -0.071774624}
        inSlope: {x: 0.050780203, y: -0.035683546, z: -0.2181316}
        outSlope: {x: 0.050780382, y: -0.035668015, z: -0.21813208}
        tangentMode: 0
        weightedMode: 0
        inWeight: {x: 0.33333334, y: 0.33333334, z: 0.33333334}
        outWeight: {x: 0.33333334, y: 0.33333334, z: 0.33333334}
      - serializedVersion: 3
        time: 0.36666667
        value: {x: 0.032489013, y: 0.5164025, z: -0.07904835}
        inSlope: {x: -0.03972604, y: -0.015629958, z: -0.2182104}
        outSlope: {x: -0.03972604, y: -0.015629958, z: -0.2182104}
        tangentMode: 0
        weightedMode: 0
        inWeight: {x: 0.33333334, y: 0.33333334, z: 0.33333334}
        outWeight: {x: 0.33333334, y: 0.33333334, z: 0.33333334}
      m_PreInfinity: 2
      m_PostInfinity: 2
      m_RotationOrder: 4
    path: Hips
  m_ScaleCurves: []
  m_FloatCurves: []
  m_PPtrCurves: []
  m_SampleRate: 30
  m_WrapMode: 0
  m_Bounds:
    m_Center: {x: 0, y: 0, z: 0}
    m_Extent: {x: 0, y: 0, z: 0}
  m_ClipBindingConstant:
    genericBindings: []
    pptrCurveMapping: []
  m_AnimationClipSettings:
    serializedVersion: 2
    m_AdditiveReferencePoseClip: {fileID: 0}
    m_AdditiveReferencePoseTime: 0
    m_StartTime: 0
    m_StopTime: 0.36666667
    m_OrientationOffsetY: 0
    m_Level: 0
    m_CycleOffset: 0
    m_HasAdditiveReferencePose: 0
    m_LoopTime: 0
    m_LoopBlend: 0
    m_LoopBlendOrientation: 0
    m_LoopBlendPositionY: 0
    m_LoopBlendPositionXZ: 0
    m_KeepOriginalOrientation: 0
    m_KeepOriginalPositionY: 1
    m_KeepOriginalPositionXZ: 0
    m_HeightFromFeet: 0
    m_Mirror: 0
  m_EditorCurves: []
  m_EulerEditorCurves: []
  m_HasGenericRootTransform: 0
  m_HasMotionFloatCurves: 0
  m_Events: []
